February 1 2016, 9:44 am,,qurban.ali,182.182.61.221,User Login
February 1 2016, 9:55 am,35,qurban.ali,182.182.61.221,Add New General Journal Entry - JV16
February 1 2016, 10:00 am,35,qurban.ali,182.182.61.221,Add New General Journal Entry - JV17
February 1 2016, 10:07 am,35,qurban.ali,182.182.61.221,Add New General Journal Entry - JV18
February 1 2016, 10:16 am,35,qurban.ali,182.182.61.221,Add New General Journal Entry - BPV59
February 1 2016, 10:22 am,35,qurban.ali,182.182.61.221,Add New General Journal Entry - BPV60
February 1 2016, 10:44 am,35,qurban.ali,182.182.61.221,Add New General Journal Entry - JV19
February 1 2016, 10:48 am,35,qurban.ali,182.182.61.221,Add New General Journal Entry - JV20
February 1 2016, 10:53 am,35,qurban.ali,182.182.61.221,Add New General Journal Entry - JV21
February 1 2016, 10:58 am,,haris.panhwer,182.182.61.221,User Login
February 1 2016, 11:01 am,35,qurban.ali,182.182.61.221,Update General Journal Entry - JV11
February 1 2016, 11:16 am,,kashif.saeed,182.182.61.221,User Login
February 1 2016, 11:32 am,29,kashif.saeed,182.182.61.221,Add New General Journal Entry - JV9
February 1 2016, 11:46 am,,qurban.ali,182.182.61.221,User Logout
February 1 2016, 12:07 pm,33,haris.panhwer,182.182.61.221,Add New General Journal Entry - BPV390
February 1 2016, 12:10 pm,33,haris.panhwer,182.182.61.221,Add New General Journal Entry - BPV391
February 1 2016, 12:12 pm,33,haris.panhwer,182.182.61.221,Add New General Journal Entry - BPV392
February 1 2016, 12:15 pm,33,haris.panhwer,182.182.61.221,Add New General Journal Entry - BPV393
February 1 2016, 12:18 pm,33,haris.panhwer,182.182.61.221,Add New General Journal Entry - BPV394
February 1 2016, 12:20 pm,33,haris.panhwer,182.182.61.221,Add New General Journal Entry - BPV395
February 1 2016, 12:44 pm,,qurban.ali,182.182.61.221,User Login
February 1 2016, 12:55 pm,35,qurban.ali,182.182.61.221,Add New General Journal Entry - JV22
February 1 2016, 12:57 pm,35,qurban.ali,182.182.61.221,Update General Journal Entry - BPV60
February 1 2016, 1:00 pm,35,qurban.ali,182.182.61.221,Add New General Journal Entry - JV23
February 1 2016, 1:01 pm,35,qurban.ali,182.182.61.221,Update General Journal Entry - BPV59
February 1 2016, 1:37 pm,35,qurban.ali,182.182.61.221,Update General Journal Entry - JV7
February 1 2016, 4:44 pm,,haris.panhwer,182.182.61.221,User Logout
February 1 2016, 6:15 pm,,qurban.ali,182.182.61.221,User Logout
February 2 2016, 9:38 am,,qurban.ali,182.182.60.172,User Login
February 2 2016, 9:53 am,35,qurban.ali,182.182.60.172,Add New General Journal Entry - JV117
February 2 2016, 10:06 am,,haris.panhwer,182.182.60.172,User Login
February 2 2016, 10:07 am,35,qurban.ali,182.182.60.172,Add New General Journal Entry - JV118
February 2 2016, 10:11 am,35,qurban.ali,182.182.60.172,Add New General Journal Entry - JV119
February 2 2016, 10:14 am,,kashif.saeed,182.182.60.172,User Login
February 2 2016, 10:18 am,35,qurban.ali,182.182.60.172,Add New General Journal Entry - JV120
February 2 2016, 11:20 am,33,haris.panhwer,182.182.79.110,Add New General Journal Entry - JV88
February 2 2016, 11:33 am,33,haris.panhwer,182.182.79.110,Add New General Journal Entry - JV89
February 2 2016, 11:43 am,33,haris.panhwer,182.182.79.110,Add New General Journal Entry - JV90
February 2 2016, 11:43 am,29,kashif.saeed,182.182.79.110,Add New General Journal Entry - BPV855
February 2 2016, 11:48 am,33,haris.panhwer,182.182.79.110,Add New General Journal Entry - JV91
February 2 2016, 12:06 pm,29,kashif.saeed,182.182.79.110,Add New General Journal Entry - BPV856
February 2 2016, 12:19 pm,,haris.panhwer,182.182.79.110,User Logout
February 2 2016, 3:08 pm,,qurban.ali,182.182.126.74,User Login
February 2 2016, 4:46 pm,,qubra.shah,103.228.158.138,User Login
February 2 2016, 5:17 pm,,haris.panhwer,182.182.126.74,User Login
February 2 2016, 5:24 pm,35,qurban.ali,182.182.126.74,Add New General Journal Entry - BRV57
February 2 2016, 5:44 pm,35,qurban.ali,182.182.126.74,Add New General Journal Entry - JV121
February 2 2016, 6:03 pm,16,qubra.shah,182.182.126.74,Add New General Journal Entry - JV34
February 2 2016, 6:08 pm,16,qubra.shah,182.182.126.74,Add New General Journal Entry - JV35
February 2 2016, 6:10 pm,16,qubra.shah,182.182.126.74,Update General Journal Entry - JV35
February 2 2016, 6:27 pm,35,qurban.ali,182.182.126.74,Update General Journal Entry - JV121
February 2 2016, 6:36 pm,,haris.panhwer,182.182.126.74,User Login
February 2 2016, 6:43 pm,,qurban.ali,182.182.126.74,User Logout
February 2 2016, 11:05 pm,,qubra.shah,119.156.0.196,User Login
February 2 2016, 11:10 pm,,qubra.shah,119.156.0.196,User Logout
February 3 2016, 9:34 am,,qubra.shah,119.156.8.124,User Login
February 3 2016, 9:53 am,,qurban.ali,182.182.126.74,User Login
February 3 2016, 10:01 am,35,qurban.ali,182.182.126.74,Add New General Journal Entry - BPV579
February 3 2016, 10:10 am,35,qurban.ali,182.182.126.74,Add New General Journal Entry - BPV580
February 3 2016, 10:14 am,35,qurban.ali,182.182.126.74,Add New General Journal Entry - BPV581
February 3 2016, 10:17 am,35,qurban.ali,182.182.126.74,Add New General Journal Entry - BPV582
February 3 2016, 10:17 am,16,qubra.shah,119.156.8.124,Add New General Journal Entry - JV36
February 3 2016, 10:27 am,,haris.panhwer,182.182.126.74,User Login
February 3 2016, 10:29 am,35,qurban.ali,182.182.126.74,Add New General Journal Entry - BPV583
February 3 2016, 10:40 am,35,qurban.ali,182.182.126.74,Add New Bank Check Book - OG
February 3 2016, 10:42 am,35,qurban.ali,182.182.126.74,Add New General Journal Entry - BPV584
February 3 2016, 10:46 am,16,qubra.shah,119.156.0.41,Add New Project - One Room Shelter Badin
February 3 2016, 10:46 am,35,qurban.ali,182.182.126.74,Add New General Journal Entry - BPV585
February 3 2016, 10:53 am,35,qurban.ali,182.182.126.74,Add New General Journal Entry - BPV586
February 3 2016, 10:55 am,35,qurban.ali,182.182.126.74,Add New General Journal Entry - BPV587
February 3 2016, 10:56 am,35,qurban.ali,182.182.126.74,Add New General Journal Entry - BPV588
February 3 2016, 11:05 am,16,qubra.shah,119.156.0.41,Add New General Journal Entry - JV1
February 3 2016, 11:07 am,,kashif.saeed,182.182.126.74,User Login
February 3 2016, 11:10 am,33,haris.panhwer,182.182.126.74,Add New General Journal Entry - BRV49
February 3 2016, 11:14 am,33,haris.panhwer,182.182.126.74,Add New General Journal Entry - BPV396
February 3 2016, 11:22 am,35,qurban.ali,182.182.99.21,Add New General Journal Entry - BPV589
February 3 2016, 11:23 am,35,qurban.ali,182.182.99.21,Add New General Journal Entry - BPV590
February 3 2016, 11:24 am,35,qurban.ali,182.182.99.21,Add New General Journal Entry - BPV591
February 3 2016, 11:26 am,35,qurban.ali,182.182.99.21,Add New General Journal Entry - BPV592
February 3 2016, 11:27 am,35,qurban.ali,182.182.99.21,Add New General Journal Entry - BPV593
February 3 2016, 11:32 am,35,qurban.ali,182.182.99.21,Add New General Journal Entry - BPV594
February 3 2016, 11:36 am,,haris.panhwer,182.182.99.21,User Logout
February 3 2016, 11:37 am,35,qurban.ali,182.182.99.21,Add New General Journal Entry - BPV595
February 3 2016, 11:40 am,35,qurban.ali,182.182.99.21,Add New General Journal Entry - BPV596
February 3 2016, 11:44 am,16,qubra.shah,119.156.0.41,Add New General Journal Entry - JV2
February 3 2016, 11:58 am,16,qubra.shah,119.156.0.41,Add New General Journal Entry - JV3
February 3 2016, 12:16 pm,16,qubra.shah,119.156.0.41,Add New General Journal Entry - BPV1
February 3 2016, 12:21 pm,16,qubra.shah,119.156.0.41,Add New General Journal Entry - BPV2
February 3 2016, 12:29 pm,,haris.panhwer,182.182.99.21,User Login
February 3 2016, 12:31 pm,16,qubra.shah,119.156.18.182,Add New General Journal Entry - JV4
February 3 2016, 12:37 pm,16,qubra.shah,119.156.18.182,Add New General Journal Entry - BPV3
February 3 2016, 12:39 pm,16,qubra.shah,119.156.18.182,Add New General Journal Entry - BPV4
February 3 2016, 12:55 pm,,qubra.shah,119.156.18.182,User Logout
February 3 2016, 12:56 pm,,qubra.shah,119.156.18.182,User Login
February 3 2016, 1:00 pm,,qubra.shah,119.156.18.182,User Logout
February 3 2016, 1:06 pm,35,qurban.ali,182.182.99.21,Add New General Journal Entry - BPV597
February 3 2016, 1:39 pm,35,qurban.ali,182.182.99.21,Add New General Journal Entry - BPV598
February 3 2016, 1:40 pm,35,qurban.ali,182.182.99.21,Update General Journal Entry - BPV598
February 3 2016, 1:43 pm,35,qurban.ali,182.182.99.21,Add New General Journal Entry - BPV599
February 3 2016, 1:48 pm,35,qurban.ali,182.182.99.21,Add New General Journal Entry - BPV600
February 3 2016, 1:51 pm,35,qurban.ali,182.182.99.21,Add New General Journal Entry - BPV601
February 3 2016, 1:58 pm,35,qurban.ali,182.182.99.21,Add New General Journal Entry - BPV602
February 3 2016, 2:06 pm,35,qurban.ali,182.182.45.6,Add New General Journal Entry - BPV603
February 3 2016, 2:08 pm,35,qurban.ali,182.182.45.6,Add New General Journal Entry - BPV604
February 3 2016, 2:10 pm,35,qurban.ali,182.182.45.6,Add New General Journal Entry - BPV605
February 3 2016, 2:12 pm,35,qurban.ali,182.182.45.6,Add New General Journal Entry - BPV606
February 3 2016, 2:17 pm,35,qurban.ali,182.182.45.6,Add New General Journal Entry - BPV607
February 3 2016, 2:29 pm,,kashif.saeed,182.182.45.6,User Login
February 3 2016, 2:45 pm,29,kashif.saeed,182.182.45.6,Add New General Journal Entry - BPV857
February 3 2016, 2:47 pm,35,qurban.ali,182.182.45.6,Add New General Journal Entry - BPV608
February 3 2016, 2:51 pm,35,qurban.ali,182.182.45.6,Add New General Journal Entry - BPV609
February 3 2016, 4:19 pm,,qubra.shah,182.182.45.6,User Login
February 3 2016, 4:22 pm,16,qubra.shah,182.182.45.6,Update General Journal Entry - JV4
February 3 2016, 4:28 pm,,kashif.saeed,182.182.45.6,User Login
February 3 2016, 4:31 pm,16,qubra.shah,182.182.45.6,Add New General Journal Entry - BPV5
February 3 2016, 4:33 pm,16,qubra.shah,182.182.45.6,Update General Journal Entry - BPV4
February 3 2016, 4:37 pm,16,qubra.shah,182.182.45.6,Add New General Journal Entry - BPV6
February 3 2016, 4:45 pm,16,qubra.shah,182.182.45.6,Add New General Journal Entry - BPV7
February 3 2016, 4:48 pm,,haris.panhwer,182.182.45.6,User Login
February 3 2016, 5:07 pm,16,qubra.shah,182.182.45.6,Update General Journal Entry - JV3
February 3 2016, 5:28 pm,16,qubra.shah,182.182.45.6,Add New General Journal Entry - BPV157
February 3 2016, 5:40 pm,16,qubra.shah,182.182.45.6,Add New General Journal Entry - BPV121
February 3 2016, 5:42 pm,16,qubra.shah,182.182.45.6,Add New General Journal Entry - BPV358
February 3 2016, 5:46 pm,16,qubra.shah,182.182.45.6,Add New General Journal Entry - BPV34
February 3 2016, 6:07 pm,,qubra.shah,182.182.45.6,User Logout
February 3 2016, 6:47 pm,,,182.182.45.6,User Logout
February 3 2016, 6:54 pm,,haris.panhwer,182.182.45.6,User Login
February 3 2016, 7:08 pm,33,haris.panhwer,182.182.45.6,Add New General Journal Entry - BPV632
February 4 2016, 9:48 am,,qurban.ali,182.182.45.6,User Login
February 4 2016, 10:05 am,,qubra.shah,119.157.74.38,User Login
February 4 2016, 10:07 am,,haris.panhwer,182.182.45.6,User Login
February 4 2016, 10:15 am,33,haris.panhwer,182.182.45.6,Add New General Journal Entry - BPV115
February 4 2016, 10:28 am,33,haris.panhwer,182.182.45.6,Add New General Journal Entry - BPV559
February 4 2016, 11:16 am,,qurban.ali,182.182.45.6,User Logout
February 4 2016, 1:45 pm,,kashif.saeed,182.182.37.226,User Login
February 4 2016, 2:23 pm,29,kashif.saeed,182.182.37.226,Add New General Journal Entry - BPV858
February 4 2016, 3:34 pm,29,kashif.saeed,182.182.37.226,Add New General Journal Entry - BPV859
February 4 2016, 3:36 pm,29,kashif.saeed,182.182.37.226,Add New General Journal Entry - BPV860
February 4 2016, 3:38 pm,29,kashif.saeed,182.182.37.226,Add New General Journal Entry - BPV861
February 4 2016, 3:39 pm,29,kashif.saeed,182.182.37.226,Add New General Journal Entry - BPV862
February 4 2016, 3:41 pm,29,kashif.saeed,182.182.37.226,Add New General Journal Entry - BPV863
February 4 2016, 3:42 pm,29,kashif.saeed,182.182.37.226,Add New General Journal Entry - BPV864
February 4 2016, 3:46 pm,29,kashif.saeed,182.182.37.226,Add New General Journal Entry - BPV865
February 4 2016, 3:47 pm,29,kashif.saeed,182.182.37.226,Update General Journal Entry - BPV859
February 7 2016, 9:44 pm,,kashif.saeed,182.182.101.132,User Login
February 8 2016, 9:47 am,,qurban.ali,182.182.39.227,User Login
February 8 2016, 10:13 am,,kashif.saeed,182.182.39.227,User Login
February 8 2016, 12:01 pm,35,qurban.ali,182.182.39.227,Add New General Journal Entry - BPV61
February 8 2016, 12:03 pm,35,qurban.ali,182.182.39.227,Update General Journal Entry - BPV61
February 8 2016, 12:21 pm,,kashif.saeed,182.182.39.227,User Login
February 8 2016, 12:29 pm,35,qurban.ali,182.182.39.227,Add New General Journal Entry - JV122
February 8 2016, 12:29 pm,,haris.panhwer,182.182.39.227,User Login
February 8 2016, 12:32 pm,35,qurban.ali,182.182.39.227,Add New General Journal Entry - BPV610
February 8 2016, 12:36 pm,35,qurban.ali,182.182.39.227,Add New General Journal Entry - BPV611
February 8 2016, 12:40 pm,35,qurban.ali,182.182.39.227,Add New General Journal Entry - BPV612
February 8 2016, 12:43 pm,35,qurban.ali,182.182.39.227,Add New General Journal Entry - BPV613
February 8 2016, 12:46 pm,35,qurban.ali,182.182.39.227,Add New General Journal Entry - BPV614
February 8 2016, 4:40 pm,35,qurban.ali,182.182.39.227,Update General Journal Entry - BPV537
February 8 2016, 4:50 pm,35,qurban.ali,182.182.39.227,Update General Journal Entry - JV111
February 8 2016, 5:11 pm,,qurban.ali,182.182.39.227,User Logout
February 9 2016, 10:11 am,,haris.panhwer,182.182.39.227,User Login
February 9 2016, 11:21 am,,kashif.saeed,182.182.39.227,User Login
February 9 2016, 11:27 am,29,kashif.saeed,182.182.39.227,Add New General Journal Entry - JV420
February 9 2016, 11:30 am,29,kashif.saeed,182.182.39.227,Add New General Journal Entry - BPV866
February 9 2016, 11:37 am,29,kashif.saeed,182.182.39.227,Add New General Journal Entry - BPV867
February 9 2016, 1:39 pm,,qurban.ali,182.182.91.225,User Login
February 9 2016, 1:55 pm,33,haris.panhwer,182.182.91.225,Add New General Journal Entry - BRV141
February 9 2016, 1:59 pm,33,haris.panhwer,182.182.91.225,Add New General Journal Entry - BRV142
February 9 2016, 2:06 pm,33,haris.panhwer,182.182.91.225,Add New General Journal Entry - BPV35
February 9 2016, 2:11 pm,33,haris.panhwer,182.182.91.225,Update General Journal Entry - BPV35
February 9 2016, 2:12 pm,35,qurban.ali,182.182.91.225,Add New General Journal Entry - BPV615
February 9 2016, 3:57 pm,35,qurban.ali,182.182.91.225,Add New General Journal Entry - BPV62
February 9 2016, 4:39 pm,,haris.panhwer,182.182.91.225,User Logout
February 9 2016, 4:56 pm,,qurban.ali,182.182.91.225,User Logout
February 10 2016, 10:39 am,,haris.panhwer,182.182.91.225,User Login
February 10 2016, 10:45 am,,kashif.saeed,182.182.91.225,User Login
February 10 2016, 10:46 am,33,haris.panhwer,182.182.91.225,Add New General Journal Entry - BPV397
February 10 2016, 10:52 am,29,kashif.saeed,182.182.91.225,Add New General Journal Entry - BRV35
February 10 2016, 11:40 am,29,kashif.saeed,182.182.91.225,Add New General Journal Entry - BRV14
February 10 2016, 12:00 pm,,ghulam.kazim,182.182.91.225,User Login
February 10 2016, 12:33 pm,34,ghulam.kazim,182.182.91.225,Add New General Journal Entry - BRV17
February 10 2016, 12:35 pm,34,ghulam.kazim,182.182.91.225,Update General Journal Entry - BRV17
February 10 2016, 12:38 pm,,ghulam.kazim,182.182.91.225,User Login
February 10 2016, 12:56 pm,34,ghulam.kazim,182.182.21.114,Add New General Journal Entry - JV41
February 10 2016, 1:04 pm,34,ghulam.kazim,182.182.115.234,Add New General Journal Entry - JV42
February 10 2016, 1:05 pm,34,ghulam.kazim,182.182.115.234,Update General Journal Entry - JV42
February 10 2016, 1:30 pm,29,kashif.saeed,182.182.115.234,Update General Journal Entry - JV41
February 10 2016, 1:34 pm,29,kashif.saeed,182.182.115.234,Update General Journal Entry - JV41
February 10 2016, 2:49 pm,34,ghulam.kazim,182.182.115.234,Add New General Journal Entry - BPV146
February 10 2016, 3:06 pm,34,ghulam.kazim,182.182.115.234,Add New General Journal Entry - BPV147
February 10 2016, 3:17 pm,34,ghulam.kazim,182.182.115.234,Add New General Journal Entry - BPV148
February 10 2016, 3:31 pm,34,ghulam.kazim,182.182.115.234,Add New General Journal Entry - BPV149
February 10 2016, 3:36 pm,34,ghulam.kazim,182.182.115.234,Add New General Journal Entry - BPV150
February 10 2016, 3:41 pm,34,ghulam.kazim,182.182.115.234,Update General Journal Entry - BPV150
February 10 2016, 3:43 pm,34,ghulam.kazim,182.182.115.234,Update General Journal Entry - BPV150
February 10 2016, 3:51 pm,34,ghulam.kazim,182.182.115.234,Add New General Journal Entry - BPV151
February 10 2016, 3:58 pm,34,ghulam.kazim,182.182.115.234,Add New General Journal Entry - BPV152
February 10 2016, 10:03 pm,,ghulam.kazim,119.154.235.175,User Login
February 11 2016, 10:43 am,,kashif.saeed,182.182.27.129,User Login
February 11 2016, 11:39 am,29,kashif.saeed,182.182.27.129,Add New General Journal Entry - BPV868
February 11 2016, 12:01 pm,29,kashif.saeed,182.182.27.129,Add New General Journal Entry - BPV274
February 11 2016, 12:07 pm,29,kashif.saeed,182.182.27.129,Add New General Journal Entry - BPV275
February 11 2016, 12:15 pm,29,kashif.saeed,182.182.27.129,Add New General Journal Entry - BPV276
February 11 2016, 12:22 pm,29,kashif.saeed,182.182.27.129,Add New General Journal Entry - BPV277
February 11 2016, 12:49 pm,29,kashif.saeed,182.182.27.129,Add New General Journal Entry - BPV278
February 11 2016, 12:58 pm,29,kashif.saeed,182.182.27.129,Update General Journal Entry - BPV278
February 11 2016, 2:04 pm,29,kashif.saeed,182.182.27.129,Add New General Journal Entry - BPV279
February 11 2016, 4:28 pm,29,kashif.saeed,182.182.27.129,Add New General Journal Entry - BRV36
February 11 2016, 4:31 pm,29,kashif.saeed,182.182.27.129,Add New General Journal Entry - BRV15
February 12 2016, 12:12 pm,,kashif.saeed,182.182.27.129,User Login
February 12 2016, 1:15 pm,,ghulam.kazim,182.182.27.129,User Login
February 12 2016, 3:46 pm,29,kashif.saeed,182.182.27.129,Update General Journal Entry - JV39
February 12 2016, 3:47 pm,29,kashif.saeed,182.182.27.129,Update General Journal Entry - BPV146
February 12 2016, 3:48 pm,29,kashif.saeed,182.182.27.129,Update General Journal Entry - BPV147
February 12 2016, 3:49 pm,29,kashif.saeed,182.182.27.129,Update General Journal Entry - BPV148
February 15 2016, 12:37 am,,ghulam.kazim,119.154.252.178,User Login
February 15 2016, 8:23 am,,ghulam.kazim,119.154.252.178,User Login
February 15 2016, 9:00 am,34,ghulam.kazim,119.154.252.178,Add New General Journal Entry - JV43
February 15 2016, 9:06 am,34,ghulam.kazim,119.154.252.178,Add New General Journal Entry - JV44
February 15 2016, 9:29 am,34,ghulam.kazim,119.154.252.178,Add New General Journal Entry - BPV153
February 15 2016, 9:57 am,34,ghulam.kazim,119.154.252.178,Add New General Journal Entry - BPV154
February 15 2016, 10:30 am,34,ghulam.kazim,119.154.252.178,Add New General Journal Entry - BPV155
February 15 2016, 1:09 pm,,kashif.saeed,182.182.97.0,User Login
February 15 2016, 4:25 pm,29,kashif.saeed,182.182.97.0,Add New General Journal Entry - BRV16
February 16 2016, 11:37 am,,kashif.saeed,182.182.97.0,User Login
February 16 2016, 1:49 pm,29,kashif.saeed,182.182.97.0,Add New General Journal Entry - BRV37
February 16 2016, 2:12 pm,29,kashif.saeed,182.182.97.0,Add New General Journal Entry - BPV280
February 16 2016, 2:16 pm,29,kashif.saeed,182.182.97.0,Add New General Journal Entry - BPV281
February 17 2016, 1:28 pm,,qurban.ali,182.182.97.0,User Login
February 17 2016, 5:30 pm,,qurban.ali,182.182.97.0,User Logout
February 18 2016, 9:36 am,,qurban.ali,182.182.97.0,User Login
February 18 2016, 2:09 pm,35,qurban.ali,182.182.97.0,Add New General Journal Entry - BRV58
February 18 2016, 2:10 pm,,qurban.ali,182.182.97.0,User Logout
February 22 2016, 12:14 pm,,kashif.saeed,182.182.70.207,User Login
February 23 2016, 10:53 am,,qurban.ali,182.182.70.207,User Login
February 23 2016, 11:42 am,,kashif.saeed,182.182.70.207,User Login
February 23 2016, 12:35 pm,29,kashif.saeed,182.182.70.207,Add New General Journal Entry - BRV38
February 23 2016, 3:13 pm,35,qurban.ali,182.182.70.207,Add New General Journal Entry - BPV616
February 23 2016, 3:59 pm,35,qurban.ali,182.182.70.207,Add New General Journal Entry - BPV617
February 23 2016, 4:05 pm,35,qurban.ali,182.182.70.207,Add New General Journal Entry - BPV618
February 23 2016, 4:08 pm,35,qurban.ali,182.182.70.207,Add New General Journal Entry - BPV619
February 23 2016, 4:18 pm,,qurban.ali,182.182.70.207,User Logout
February 24 2016, 9:24 am,,ghulam.kazim,119.154.252.216,User Login
February 24 2016, 10:52 am,,qurban.ali,182.182.70.207,User Login
February 24 2016, 10:55 am,,kashif.saeed,182.182.70.207,User Login
February 24 2016, 11:15 am,29,kashif.saeed,182.182.70.207,Add New Bank Check Book - RT
February 24 2016, 2:04 pm,29,kashif.saeed,182.182.70.207,Add New General Journal Entry - BPV282
February 24 2016, 3:47 pm,,ghulam.kazim,182.182.70.207,User Login
February 24 2016, 3:59 pm,34,ghulam.kazim,182.182.115.22,Add New General Journal Entry - BPV156
February 24 2016, 5:05 pm,,qurban.ali,182.182.70.207,User Logout
February 24 2016, 5:21 pm,34,ghulam.kazim,182.182.70.207,Add New General Journal Entry - BPV157
February 25 2016, 10:13 am,,qurban.ali,182.182.70.207,User Login
February 25 2016, 10:52 am,35,qurban.ali,182.182.70.207,Add New General Journal Entry - BPV620
February 25 2016, 10:55 am,35,qurban.ali,182.182.70.207,Add New General Journal Entry - BPV621
February 25 2016, 10:57 am,35,qurban.ali,182.182.70.207,Add New General Journal Entry - BRV59
February 25 2016, 11:32 am,,kashif.saeed,182.182.70.207,User Login
February 25 2016, 2:05 pm,29,kashif.saeed,182.182.12.66,Update General Journal Entry - BRV17
February 25 2016, 3:06 pm,29,kashif.saeed,182.182.89.62,Update General Journal Entry - BRV17
February 25 2016, 3:26 pm,,qurban.ali,182.182.89.62,User Login
February 25 2016, 3:28 pm,35,qurban.ali,182.182.89.62,Add New General Journal Entry - BPV427
February 25 2016, 3:31 pm,35,qurban.ali,182.182.89.62,Update General Journal Entry - BPV427
February 25 2016, 3:43 pm,,kashif.saeed,182.182.89.62,User Login
February 25 2016, 5:02 pm,,qurban.ali,182.182.89.62,User Logout
February 29 2016, 9:57 am,,kashif.saeed,182.182.105.113,User Login
February 29 2016, 10:08 am,,qurban.ali,182.182.105.113,User Login
February 29 2016, 10:59 am,29,kashif.saeed,182.182.105.113,Add New General Journal Entry - BPV869
February 29 2016, 11:33 am,,qurban.ali,182.182.105.113,User Login
February 29 2016, 11:41 am,29,kashif.saeed,182.182.105.113,Add New General Journal Entry - BPV870
February 29 2016, 11:44 am,35,qurban.ali,182.182.105.113,Add New General Journal Entry - BPV63
February 29 2016, 11:46 am,35,qurban.ali,182.182.105.113,Update General Journal Entry - BPV63
February 29 2016, 11:53 am,35,qurban.ali,182.182.105.113,Add New General Journal Entry - BPV64
February 29 2016, 11:55 am,,ghulam.kazim,119.154.252.206,User Login
February 29 2016, 12:01 pm,35,qurban.ali,182.182.105.113,Add New General Journal Entry - BPV65
February 29 2016, 12:05 pm,35,qurban.ali,182.182.105.113,Add New General Journal Entry - BPV66
February 29 2016, 12:10 pm,35,qurban.ali,182.182.105.113,Add New General Journal Entry - BPV67
February 29 2016, 12:37 pm,35,qurban.ali,182.182.105.113,Add New General Journal Entry - BPV68
February 29 2016, 12:42 pm,35,qurban.ali,182.182.105.113,Add New General Journal Entry - BPV69
February 29 2016, 12:49 pm,35,qurban.ali,182.182.105.113,Add New General Journal Entry - BPV70
February 29 2016, 12:52 pm,35,qurban.ali,182.182.105.113,Add New General Journal Entry - BPV71
February 29 2016, 12:55 pm,35,qurban.ali,182.182.105.113,Add New General Journal Entry - BPV72
February 29 2016, 12:59 pm,35,qurban.ali,182.182.105.113,Add New General Journal Entry - BPV73
February 29 2016, 1:02 pm,35,qurban.ali,182.182.105.113,Add New General Journal Entry - BPV74
February 29 2016, 1:04 pm,35,qurban.ali,182.182.105.113,Add New General Journal Entry - BPV75
February 29 2016, 1:10 pm,,kashif.saeed,182.182.105.113,User Login
February 29 2016, 1:28 pm,29,kashif.saeed,182.182.105.113,Add New General Journal Entry - BPV871
February 29 2016, 1:45 pm,29,kashif.saeed,182.182.105.113,Add New General Journal Entry - BPV872
February 29 2016, 1:47 pm,29,kashif.saeed,182.182.105.113,Add New General Journal Entry - BPV873
February 29 2016, 1:50 pm,29,kashif.saeed,182.182.105.113,Add New General Journal Entry - BPV874
February 29 2016, 2:11 pm,29,kashif.saeed,182.182.105.113,Add New General Journal Entry - BPV21
February 29 2016, 5:05 pm,,qurban.ali,182.182.105.113,User Logout
