July 1 2013, 9:51 am,,zenab.memon,182.182.44.80,User Login
July 1 2013, 9:58 am,24,zenab.memon,182.182.44.80,Add New General Journal Entry - BPV175
July 1 2013, 10:02 am,24,zenab.memon,182.182.44.80,Add New General Journal Entry - BPV176
July 1 2013, 10:07 am,,hidayatali,182.182.44.80,User Login
July 1 2013, 10:10 am,30,hidayatali,182.182.44.80,Add New General Journal Entry - JV43
July 1 2013, 10:14 am,24,zenab.memon,182.182.44.80,Add New General Journal Entry - BPV177
July 1 2013, 10:22 am,24,zenab.memon,182.182.44.80,Add New General Journal Entry - BPV178
July 1 2013, 10:25 am,,hidayatali,182.182.44.80,User Logout
July 1 2013, 10:25 am,24,zenab.memon,182.182.44.80,Add New General Journal Entry - BPV179
July 1 2013, 10:28 am,24,zenab.memon,182.182.44.80,Add New General Journal Entry - BPV180
July 1 2013, 10:31 am,,ali.shabab,182.182.44.80,User Login
July 1 2013, 10:31 am,24,zenab.memon,182.182.44.80,Add New General Journal Entry - BPV181
July 1 2013, 10:36 am,31,ali.shabab,182.182.44.80,Add New General Journal Entry - BRV3
July 1 2013, 10:36 am,24,zenab.memon,182.182.44.80,Add New General Journal Entry - BPV16
July 1 2013, 10:37 am,,kashif.saeed,182.182.44.80,User Login
July 1 2013, 10:47 am,24,zenab.memon,182.182.44.80,Add New General Journal Entry - BPV182
July 1 2013, 10:55 am,31,ali.shabab,182.182.44.80,Add New General Journal Entry - BRV24
July 1 2013, 11:30 am,,qureshi.haleem,182.182.6.94,User Login
July 1 2013, 11:53 am,24,zenab.memon,182.182.6.94,Update General Journal Entry - BPV182
July 1 2013, 11:57 am,,sikandar.ali,182.182.6.94,User Login
July 1 2013, 11:59 am,,eshwar,182.182.6.94,User Login
July 1 2013, 12:04 pm,24,zenab.memon,182.182.6.94,Add New General Journal Entry - BRV29
July 1 2013, 12:08 pm,24,zenab.memon,182.182.6.94,Add New General Journal Entry - BRV16
July 1 2013, 12:39 pm,24,zenab.memon,182.182.6.94,Update General Journal Entry - BPV182
July 1 2013, 1:21 pm,,ali.shabab,182.182.6.94,User Login
July 1 2013, 1:28 pm,,deedar.ali,182.182.6.94,User Login
July 1 2013, 1:29 pm,24,zenab.memon,182.182.6.94,Update General Journal Entry - BPV95
July 1 2013, 1:32 pm,24,zenab.memon,182.182.6.94,Update General Journal Entry - BPV235
July 1 2013, 1:40 pm,24,zenab.memon,182.182.6.94,Add New General Journal Entry - BPV97
July 1 2013, 1:45 pm,,marvi.maznani,182.182.9.167,User Login
July 1 2013, 1:51 pm,,zenab.memon,182.182.9.167,User Logout
July 1 2013, 1:53 pm,,sikandar.ali,182.182.9.167,User Login
July 1 2013, 1:58 pm,,marvi.maznani,182.182.9.167,User Logout
July 1 2013, 1:58 pm,,zenab.memon,182.182.9.167,User Login
July 1 2013, 1:59 pm,,ali.shabab,182.182.9.167,User Login
July 1 2013, 2:00 pm,24,zenab.memon,182.182.9.167,Update General Journal Entry - BPV202
July 1 2013, 2:08 pm,,kashif.saeed,182.182.9.167,User Login
July 1 2013, 2:14 pm,29,kashif.saeed,182.182.9.167,Add New General Journal Entry - BPV187
July 1 2013, 2:16 pm,29,kashif.saeed,182.182.9.167,Add New General Journal Entry - BPV188
July 1 2013, 2:18 pm,29,kashif.saeed,182.182.9.167,Add New General Journal Entry - BPV189
July 1 2013, 2:21 pm,,zenab.memon,182.182.9.167,User Logout
July 1 2013, 2:21 pm,29,kashif.saeed,182.182.9.167,Add New General Journal Entry - BPV190
July 1 2013, 2:23 pm,29,kashif.saeed,182.182.9.167,Add New General Journal Entry - BPV191
July 1 2013, 3:40 pm,,,182.182.9.167,User Logout
July 1 2013, 3:41 pm,,deedar.ali,182.182.9.167,User Login
July 1 2013, 3:42 pm,,deedar.ali,182.182.9.167,User Logout
July 1 2013, 3:42 pm,,deedar.ali,182.182.9.167,User Login
July 1 2013, 3:43 pm,,marvi.maznani,182.182.9.167,User Login
July 1 2013, 3:54 pm,,zenab.memon,182.182.9.167,User Login
July 1 2013, 4:18 pm,,kashif.saeed,182.182.67.15,User Login
July 1 2013, 4:22 pm,29,kashif.saeed,182.182.67.15,Add New General Journal Entry - BPV192
July 1 2013, 4:42 pm,,hidayatali,182.182.67.15,User Login
July 1 2013, 4:44 pm,24,zenab.memon,182.182.67.15,Add New General Journal Entry - BPV241
July 1 2013, 4:45 pm,30,hidayatali,182.182.67.15,Add New General Journal Entry - BPV69
July 1 2013, 4:47 pm,24,zenab.memon,182.182.67.15,Add New General Journal Entry - BPV242
July 1 2013, 4:47 pm,,zenab.memon,182.182.67.15,User Logout
July 1 2013, 5:00 pm,,deedar.ali,182.182.67.15,User Logout
July 1 2013, 5:08 pm,,hidayatali,182.182.67.15,User Logout
July 2 2013, 10:36 am,,ali.shabab,182.182.102.161,User Login
July 2 2013, 10:52 am,31,ali.shabab,182.182.102.161,Add New General Journal Entry - BPV155
July 2 2013, 10:57 am,,sikandar.ali,182.182.102.161,User Login
July 2 2013, 11:02 am,14,sikandar.ali,182.182.102.161,Add New General Journal Entry - BPV30
July 2 2013, 11:14 am,,eshwar,182.182.75.173,User Login
July 2 2013, 11:52 am,,qureshi.haleem,182.182.75.173,User Login
July 2 2013, 12:51 pm,,kashif.saeed,182.182.75.173,User Login
July 2 2013, 3:53 pm,,ali.shabab,182.182.75.173,User Login
July 2 2013, 3:58 pm,31,ali.shabab,182.182.75.173,Add New General Journal Entry - BPV1018
July 2 2013, 4:04 pm,28,eshwar,182.182.75.173,Add New General Journal Entry - BPV84
July 2 2013, 4:05 pm,31,ali.shabab,182.182.75.173,Add New General Journal Entry - BPV1019
July 2 2013, 4:08 pm,,ali.shabab,182.182.78.44,User Login
July 2 2013, 4:12 pm,,kashif.saeed,182.182.78.44,User Login
July 2 2013, 4:27 pm,31,ali.shabab,182.182.78.44,Add New General Journal Entry - BPV156
July 2 2013, 4:29 pm,31,ali.shabab,182.182.78.44,Update General Journal Entry - BPV156
July 2 2013, 4:40 pm,31,ali.shabab,182.182.78.44,Add New General Journal Entry - BPV157
July 2 2013, 5:06 pm,,ali.shabab,182.182.78.44,User Logout
July 3 2013, 9:46 am,,kashif.saeed,182.182.51.143,User Login
July 3 2013, 10:15 am,,hidayatali,182.182.67.58,User Login
July 3 2013, 10:19 am,30,hidayatali,182.182.67.58,Add New General Journal Entry - BRV11
July 3 2013, 10:20 am,,ali.shabab,182.182.67.58,User Login
July 3 2013, 10:28 am,30,hidayatali,182.182.67.58,Add New General Journal Entry - BRV26
July 3 2013, 10:31 am,31,ali.shabab,182.182.67.58,Add New General Journal Entry - JV22
July 3 2013, 10:34 am,31,ali.shabab,182.182.67.58,Add New General Journal Entry - JV23
July 3 2013, 10:36 am,31,ali.shabab,182.182.67.58,Add New General Journal Entry - JV24
July 3 2013, 10:38 am,,kashif.saeed,182.182.67.58,User Login
July 3 2013, 10:43 am,31,ali.shabab,182.182.67.58,Add New General Journal Entry - BPV158
July 3 2013, 10:46 am,31,ali.shabab,182.182.67.58,Add New General Journal Entry - BPV159
July 3 2013, 10:49 am,31,ali.shabab,182.182.67.58,Add New General Journal Entry - BPV160
July 3 2013, 11:18 am,,eshwar,182.182.47.91,User Login
July 3 2013, 11:45 am,,qureshi.haleem,182.182.47.91,User Login
July 3 2013, 11:47 am,28,eshwar,182.182.47.91,Add New General Journal Entry - BPV697
July 3 2013, 11:47 am,28,eshwar,182.182.47.91,Update General Journal Entry - BPV697
July 3 2013, 11:56 am,,kashif.saeed,182.182.47.91,User Login
July 3 2013, 12:06 pm,,ali.shabab,182.182.47.91,User Login
July 3 2013, 12:10 pm,31,ali.shabab,182.182.47.91,Add New General Journal Entry - JV25
July 3 2013, 12:12 pm,31,ali.shabab,182.182.47.91,Add New General Journal Entry - JV26
July 3 2013, 12:15 pm,31,ali.shabab,182.182.47.91,Add New General Journal Entry - JV27
July 3 2013, 12:17 pm,,hidayatali,182.182.47.91,User Login
July 3 2013, 12:41 pm,,sikandar.ali,182.182.47.91,User Login
July 3 2013, 12:46 pm,14,sikandar.ali,182.182.47.91,Add New General Journal Entry - BPV112
July 3 2013, 12:50 pm,30,hidayatali,182.182.47.91,Add New General Journal Entry - CRV1
July 3 2013, 12:51 pm,30,hidayatali,182.182.47.91,Update General Journal Entry - CRV1
July 3 2013, 12:52 pm,29,kashif.saeed,182.182.47.91,Add New General Journal Entry - BPV193
July 3 2013, 12:56 pm,,qureshi.haleem,182.182.91.200,User Login
July 3 2013, 12:57 pm,20,qureshi.haleem,182.182.91.200,Update General Journal Entry - CRV1
July 3 2013, 12:57 pm,29,kashif.saeed,182.182.91.200,Add New General Journal Entry - BPV194
July 3 2013, 12:58 pm,14,sikandar.ali,182.182.91.200,Add New General Journal Entry - BPV113
July 3 2013, 1:02 pm,29,kashif.saeed,182.182.91.200,Add New General Journal Entry - BPV195
July 3 2013, 1:05 pm,29,kashif.saeed,182.182.91.200,Add New General Journal Entry - BPV196
July 3 2013, 1:06 pm,,admin,182.182.103.37,User Login
July 3 2013, 1:07 pm,29,kashif.saeed,182.182.91.200,Add New General Journal Entry - BPV197
July 3 2013, 1:17 pm,,eshwar,182.182.91.200,User Login
July 3 2013, 1:18 pm,30,hidayatali,182.182.91.200,Add New General Journal Entry - BPV168
July 3 2013, 1:21 pm,28,eshwar,182.182.91.200,Add New Bank Check Book - M
July 3 2013, 1:24 pm,28,eshwar,182.182.91.200,Add New General Journal Entry - BPV698
July 3 2013, 1:26 pm,30,hidayatali,182.182.91.200,Add New General Journal Entry - BPV169
July 3 2013, 1:29 pm,30,hidayatali,182.182.91.200,Add New General Journal Entry - BPV170
July 3 2013, 1:29 pm,28,eshwar,182.182.91.200,Add New General Journal Entry - BPV244
July 3 2013, 1:32 pm,30,hidayatali,182.182.91.200,Add New General Journal Entry - BPV171
July 3 2013, 1:35 pm,30,hidayatali,182.182.91.200,Add New General Journal Entry - BPV172
July 3 2013, 1:37 pm,30,hidayatali,182.182.91.200,Add New General Journal Entry - BPV173
July 3 2013, 1:39 pm,30,hidayatali,182.182.91.200,Add New General Journal Entry - BPV174
July 3 2013, 1:41 pm,30,hidayatali,182.182.91.200,Add New General Journal Entry - BPV175
July 3 2013, 1:44 pm,28,eshwar,182.182.91.200,Add New Chart Of Account - IEC Material Cost
July 3 2013, 1:45 pm,28,eshwar,182.182.91.200,Add New Chart Of Account - Special Promotion Kits Expense
July 3 2013, 1:47 pm,30,hidayatali,182.182.91.200,Add New General Journal Entry - BPV176
July 3 2013, 1:51 pm,30,hidayatali,182.182.91.200,Add New General Journal Entry - BPV177
July 3 2013, 1:56 pm,28,eshwar,182.182.91.200,Add New General Journal Entry - BPV135
July 3 2013, 1:59 pm,28,eshwar,182.182.91.200,Update General Journal Entry - BPV135
July 3 2013, 2:02 pm,,hidayatali,182.182.91.200,User Logout
July 3 2013, 2:17 pm,28,eshwar,182.182.91.200,Add New General Journal Entry - BPV136
July 3 2013, 2:18 pm,,ali.shabab,182.182.91.200,User Login
July 3 2013, 2:34 pm,28,eshwar,182.182.91.200,Update General Journal Entry - BPV136
July 3 2013, 3:03 pm,,kashif.saeed,182.182.91.200,User Login
July 3 2013, 3:28 pm,28,eshwar,182.182.91.200,Add New General Journal Entry - BPV137
July 3 2013, 3:35 pm,28,eshwar,182.182.91.200,Add New General Journal Entry - BPV138
July 3 2013, 3:35 pm,,eshwar,182.182.91.200,User Logout
July 3 2013, 3:35 pm,,ali.shabab,182.182.91.200,User Login
July 3 2013, 3:41 pm,31,ali.shabab,182.182.91.200,Add New General Journal Entry - BPV1020
July 3 2013, 4:14 pm,,sikandar.ali,65.49.14.50,User Login
July 3 2013, 4:19 pm,14,sikandar.ali,65.49.14.50,Add New General Journal Entry - BPV114
July 3 2013, 4:50 pm,,hidayatali,182.182.29.129,User Login
July 3 2013, 4:53 pm,30,hidayatali,182.182.29.129,Add New General Journal Entry - BPV280
July 3 2013, 4:54 pm,30,hidayatali,182.182.29.129,Add New General Journal Entry - BPV281
July 3 2013, 4:56 pm,30,hidayatali,182.182.29.129,Add New General Journal Entry - BPV282
July 3 2013, 5:13 pm,,ali.shabab,182.182.29.129,User Login
July 3 2013, 5:16 pm,,hidayatali,182.182.29.129,User Logout
July 3 2013, 5:19 pm,31,ali.shabab,182.182.29.129,Add New General Journal Entry - BPV161
July 3 2013, 5:20 pm,,ali.shabab,182.182.29.129,User Logout
July 4 2013, 10:00 am,,hidayatali,182.182.97.191,User Login
July 4 2013, 10:02 am,,eshwar,182.182.97.191,User Login
July 4 2013, 10:02 am,30,hidayatali,182.182.97.191,Update General Journal Entry - JV37
July 4 2013, 10:14 am,,kashif.saeed,182.182.97.191,User Login
July 4 2013, 10:15 am,,zenab.memon,182.182.97.191,User Login
July 4 2013, 10:26 am,24,zenab.memon,182.182.97.191,Add New General Journal Entry - BPV98
July 4 2013, 10:30 am,24,zenab.memon,182.182.97.191,Add New General Journal Entry - BPV99
July 4 2013, 11:13 am,,hidayatali,182.182.51.177,User Login
July 4 2013, 11:18 am,30,hidayatali,182.182.51.177,Add New General Journal Entry - BPV88
July 4 2013, 11:24 am,30,hidayatali,182.182.51.177,Add New General Journal Entry - BPV89
July 4 2013, 11:27 am,30,hidayatali,182.182.51.177,Add New General Journal Entry - BPV90
July 4 2013, 11:30 am,30,hidayatali,182.182.51.177,Add New General Journal Entry - BPV91
July 4 2013, 11:42 am,30,hidayatali,182.182.51.177,Add New General Journal Entry - BPV92
July 4 2013, 11:43 am,,zenab.memon,182.182.51.177,User Login
July 4 2013, 11:44 am,30,hidayatali,182.182.51.177,Add New General Journal Entry - BPV93
July 4 2013, 11:47 am,30,hidayatali,182.182.51.177,Add New General Journal Entry - BPV94
July 4 2013, 11:49 am,30,hidayatali,182.182.51.177,Add New General Journal Entry - BPV95
July 4 2013, 11:54 am,30,hidayatali,182.182.51.177,Add New General Journal Entry - BPV96
July 4 2013, 11:56 am,30,hidayatali,182.182.51.177,Add New General Journal Entry - BPV97
July 4 2013, 11:58 am,30,hidayatali,182.182.51.177,Add New General Journal Entry - BPV98
July 4 2013, 12:00 pm,30,hidayatali,182.182.51.177,Add New General Journal Entry - BPV99
July 4 2013, 12:03 pm,30,hidayatali,182.182.51.177,Add New General Journal Entry - BPV100
July 4 2013, 12:05 pm,,ali.shabab,182.182.51.177,User Login
July 4 2013, 12:05 pm,30,hidayatali,182.182.51.177,Add New General Journal Entry - BPV101
July 4 2013, 12:07 pm,30,hidayatali,182.182.51.177,Add New General Journal Entry - BPV102
July 4 2013, 12:11 pm,30,hidayatali,182.182.51.177,Add New General Journal Entry - BPV103
July 4 2013, 12:13 pm,30,hidayatali,182.182.51.177,Add New General Journal Entry - BPV104
July 4 2013, 12:15 pm,30,hidayatali,182.182.51.177,Add New General Journal Entry - BPV105
July 4 2013, 12:20 pm,,eshwar,182.182.51.177,User Login
July 4 2013, 12:21 pm,,kashif.saeed,182.182.51.177,User Login
July 4 2013, 12:25 pm,28,eshwar,182.182.51.177,Add New General Journal Entry - BPV139
July 4 2013, 12:33 pm,28,eshwar,182.182.51.177,Add New General Journal Entry - BPV85
July 4 2013, 12:54 pm,,sikandar.ali,65.49.14.73,User Login
July 4 2013, 1:03 pm,30,hidayatali,182.182.51.177,Add New General Journal Entry - BPV106
July 4 2013, 1:06 pm,30,hidayatali,182.182.51.177,Add New General Journal Entry - BPV107
July 4 2013, 1:13 pm,31,ali.shabab,182.182.51.177,Add New General Journal Entry - BPV162
July 4 2013, 1:28 pm,31,ali.shabab,182.182.51.177,Add New General Journal Entry - BPV163
July 4 2013, 1:30 pm,,hidayatali,182.182.51.177,User Logout
July 4 2013, 2:08 pm,24,zenab.memon,182.182.51.177,Add New General Journal Entry - BPV243
July 4 2013, 2:13 pm,,ali.shabab,182.182.51.177,User Logout
July 4 2013, 2:14 pm,,ali.shabab,182.182.51.177,User Login
July 4 2013, 2:22 pm,31,ali.shabab,182.182.51.177,Add New General Journal Entry - BPV164
July 4 2013, 2:25 pm,31,ali.shabab,182.182.51.177,Add New General Journal Entry - BPV165
July 4 2013, 2:30 pm,,qureshi.haleem,182.182.51.177,User Login
July 4 2013, 2:40 pm,31,ali.shabab,182.182.66.6,Add New General Journal Entry - BPV166
July 4 2013, 2:50 pm,31,ali.shabab,182.182.88.58,Add New General Journal Entry - BPV167
July 4 2013, 2:52 pm,31,ali.shabab,182.182.88.58,Add New General Journal Entry - BPV168
July 4 2013, 3:00 pm,,eshwar,182.182.88.58,User Login
July 4 2013, 3:02 pm,31,ali.shabab,182.182.88.58,Add New General Journal Entry - BPV169
July 4 2013, 3:04 pm,28,eshwar,182.182.88.58,Add New General Journal Entry - BPV140
July 4 2013, 3:11 pm,,kashif.saeed,182.182.88.58,User Login
July 4 2013, 3:14 pm,31,ali.shabab,182.182.88.58,Add New General Journal Entry - BPV170
July 4 2013, 3:17 pm,31,ali.shabab,182.182.88.58,Add New General Journal Entry - BPV171
July 4 2013, 3:19 pm,29,kashif.saeed,182.182.88.58,Add New General Journal Entry - BPV78
July 4 2013, 3:21 pm,29,kashif.saeed,182.182.88.58,Update General Journal Entry - BPV78
July 4 2013, 3:45 pm,31,ali.shabab,182.182.88.58,Add New General Journal Entry - BPV172
July 4 2013, 3:45 pm,,hidayatali,182.182.88.58,User Login
July 4 2013, 3:46 pm,31,ali.shabab,182.182.88.58,Update General Journal Entry - BPV172
July 4 2013, 3:48 pm,31,ali.shabab,182.182.88.58,Add New General Journal Entry - BPV173
July 4 2013, 3:56 pm,,hidayatali,182.182.88.58,User Logout
July 4 2013, 4:00 pm,,qureshi.haleem,182.182.88.58,User Login
July 4 2013, 4:08 pm,31,ali.shabab,182.182.88.58,Add New General Journal Entry - BPV174
July 4 2013, 4:10 pm,31,ali.shabab,182.182.88.58,Add New General Journal Entry - BPV175
July 4 2013, 4:12 pm,31,ali.shabab,182.182.88.58,Add New General Journal Entry - BPV176
July 4 2013, 4:16 pm,,zenab.memon,182.182.88.58,User Login
July 4 2013, 4:23 pm,,ali.shabab,182.182.27.65,User Login
July 4 2013, 4:23 pm,24,zenab.memon,182.182.27.65,Add New General Journal Entry - BPV183
July 4 2013, 4:26 pm,24,zenab.memon,182.182.27.65,Add New General Journal Entry - BPV184
July 4 2013, 4:29 pm,24,zenab.memon,182.182.27.65,Add New General Journal Entry - BPV100
July 4 2013, 4:30 pm,24,zenab.memon,182.182.27.65,Update General Journal Entry - BPV100
July 4 2013, 4:33 pm,24,zenab.memon,182.182.27.65,Add New General Journal Entry - BPV101
July 4 2013, 4:47 pm,24,zenab.memon,182.182.27.65,Add New General Journal Entry - BPV244
July 4 2013, 5:01 pm,24,zenab.memon,182.182.27.65,Add New General Journal Entry - BPV17
July 4 2013, 5:01 pm,31,ali.shabab,182.182.27.65,Add New General Journal Entry - BPV177
July 4 2013, 5:01 pm,,zenab.memon,182.182.27.65,User Logout
July 4 2013, 5:04 pm,31,ali.shabab,182.182.27.65,Add New General Journal Entry - BPV178
July 4 2013, 5:08 pm,31,ali.shabab,182.182.27.65,Add New General Journal Entry - BPV179
July 4 2013, 5:18 pm,31,ali.shabab,182.182.27.65,Add New General Journal Entry - BPV180
July 5 2013, 11:01 am,,qureshi.haleem,182.182.92.115,User Login
July 5 2013, 11:02 am,,eshwar,182.182.92.115,User Login
July 5 2013, 11:11 am,28,eshwar,182.182.104.25,Add New General Journal Entry - BPV141
July 5 2013, 11:21 am,28,eshwar,182.182.104.25,Add New General Journal Entry - BPV142
July 5 2013, 11:42 am,,kashif.saeed,182.182.104.25,User Login
July 5 2013, 1:23 pm,,sikandar.ali,182.182.35.230,User Login
July 5 2013, 3:01 pm,28,eshwar,182.182.83.150,Add New General Journal Entry - BPV143
July 5 2013, 3:21 pm,28,eshwar,182.182.83.150,Add New General Journal Entry - BPV1021
July 5 2013, 3:32 pm,28,eshwar,182.182.83.150,Add New General Journal Entry - BPV144
July 5 2013, 4:19 pm,,ali.shabab,182.182.94.113,User Login
July 5 2013, 4:21 pm,,ali.shabab,182.182.94.113,User Logout
July 8 2013, 9:59 am,,kashif.saeed,182.182.85.170,User Login
July 8 2013, 10:26 am,,eshwar,182.182.85.170,User Login
July 8 2013, 10:31 am,,zenab.memon,182.182.85.170,User Login
July 8 2013, 10:44 am,,qubra.shah,182.182.85.170,User Login
July 8 2013, 11:06 am,28,eshwar,182.182.69.74,Add New General Journal Entry - BPV145
July 8 2013, 11:12 am,,ali.shabab,182.182.69.74,User Login
July 8 2013, 11:19 am,31,ali.shabab,182.182.69.74,Add New General Journal Entry - BPV181
July 8 2013, 11:24 am,31,ali.shabab,182.182.69.74,Add New General Journal Entry - BPV182
July 8 2013, 11:26 am,16,qubra.shah,182.182.69.74,Add New General Journal Entry - BPV14
July 8 2013, 11:27 am,,kashif.saeed,182.182.69.74,User Login
July 8 2013, 11:33 am,,zenab.memon,182.182.69.74,User Logout
July 8 2013, 12:03 pm,,qubra.shah,182.182.69.74,User Logout
July 8 2013, 12:04 pm,,admin,182.182.69.74,User Login
July 8 2013, 12:04 pm,28,eshwar,182.182.69.74,Add New General Journal Entry - BPV146
July 8 2013, 12:07 pm,1,admin,182.182.69.74,Add New Chart Of Account - A/C Payable to SAFWCO ERF Project
July 8 2013, 12:08 pm,,admin,182.182.69.74,User Logout
July 8 2013, 12:08 pm,,qubra.shah,182.182.69.74,User Login
July 8 2013, 12:13 pm,16,qubra.shah,182.182.69.74,Add New General Journal Entry - BRV9
July 8 2013, 12:19 pm,,hidayatali,182.182.69.74,User Login
July 8 2013, 12:28 pm,,kashif.saeed,182.182.69.74,User Login
July 8 2013, 12:28 pm,30,hidayatali,182.182.69.74,Add New General Journal Entry - JV38
July 8 2013, 12:34 pm,29,kashif.saeed,182.182.69.74,Add New General Journal Entry - BPV198
July 8 2013, 12:34 pm,16,qubra.shah,182.182.69.74,Add New General Journal Entry - BRV10
July 8 2013, 12:36 pm,29,kashif.saeed,182.182.69.74,Add New General Journal Entry - BPV199
July 8 2013, 12:40 pm,29,kashif.saeed,182.182.69.74,Add New General Journal Entry - BPV200
July 8 2013, 12:50 pm,30,hidayatali,182.182.69.74,Add New General Journal Entry - BPV108
July 8 2013, 12:52 pm,30,hidayatali,182.182.69.74,Add New General Journal Entry - BPV109
July 8 2013, 12:54 pm,30,hidayatali,182.182.69.74,Add New General Journal Entry - BPV110
July 8 2013, 1:01 pm,30,hidayatali,182.182.57.25,Add New General Journal Entry - BPV111
July 8 2013, 1:03 pm,30,hidayatali,182.182.57.25,Add New General Journal Entry - BPV112
July 8 2013, 1:06 pm,30,hidayatali,182.182.57.25,Add New General Journal Entry - BPV113
July 8 2013, 1:08 pm,30,hidayatali,182.182.57.25,Add New General Journal Entry - BPV114
July 8 2013, 1:10 pm,30,hidayatali,182.182.57.25,Add New General Journal Entry - BPV115
July 8 2013, 1:11 pm,,zenab.memon,182.182.57.25,User Login
July 8 2013, 1:12 pm,30,hidayatali,182.182.57.25,Add New General Journal Entry - BPV116
July 8 2013, 1:14 pm,16,qubra.shah,182.182.57.25,Add New General Journal Entry - BPV15
July 8 2013, 1:16 pm,30,hidayatali,182.182.57.25,Add New General Journal Entry - BPV117
July 8 2013, 1:18 pm,30,hidayatali,182.182.57.25,Add New General Journal Entry - BPV118
July 8 2013, 1:20 pm,30,hidayatali,182.182.57.25,Add New General Journal Entry - BPV119
July 8 2013, 1:23 pm,30,hidayatali,182.182.57.25,Add New General Journal Entry - BPV120
July 8 2013, 1:24 pm,,zenab.memon,182.182.57.25,User Logout
July 8 2013, 1:26 pm,30,hidayatali,182.182.57.25,Add New General Journal Entry - BPV121
July 8 2013, 1:28 pm,30,hidayatali,182.182.57.25,Add New General Journal Entry - BPV122
July 8 2013, 1:30 pm,30,hidayatali,182.182.57.25,Add New General Journal Entry - BPV123
July 8 2013, 1:32 pm,30,hidayatali,182.182.57.25,Add New General Journal Entry - BPV124
July 8 2013, 1:36 pm,30,hidayatali,182.182.57.25,Add New General Journal Entry - BPV125
July 8 2013, 1:50 pm,30,hidayatali,182.182.57.25,Add New General Journal Entry - BPV126
July 8 2013, 1:58 pm,,hidayatali,182.182.57.25,User Logout
July 8 2013, 2:49 pm,,eshwar,182.182.57.25,User Login
July 8 2013, 3:13 pm,,ali.shabab,182.182.57.25,User Login
July 8 2013, 3:26 pm,,zenab.memon,182.182.57.25,User Login
July 8 2013, 3:33 pm,24,zenab.memon,182.182.57.25,Add New General Journal Entry - BPV18
July 8 2013, 3:35 pm,,zenab.memon,182.182.57.25,User Logout
July 8 2013, 3:43 pm,,deedar.ali,182.182.57.25,User Login
July 8 2013, 3:51 pm,22,deedar.ali,182.182.57.25,Add New General Journal Entry - JV7
July 8 2013, 3:59 pm,22,deedar.ali,182.182.34.51,Add New General Journal Entry - BPV30
July 8 2013, 4:07 pm,,qubra.shah,182.182.34.51,User Login
July 8 2013, 4:43 pm,,zenab.memon,182.182.34.51,User Login
July 8 2013, 4:50 pm,,qubra.shah,182.182.34.51,User Logout
July 8 2013, 4:54 pm,,zenab.memon,182.182.34.51,User Logout
July 8 2013, 4:57 pm,,,182.182.34.51,User Logout
July 8 2013, 5:11 pm,,deedar.ali,182.182.34.51,User Logout
July 8 2013, 5:34 pm,,eshwar,182.182.34.51,User Login
July 8 2013, 5:34 pm,,kashif.saeed,182.182.34.51,User Login
July 8 2013, 6:12 pm,28,eshwar,182.182.22.203,Update General Journal Entry - BPV36
July 8 2013, 6:19 pm,28,eshwar,182.182.22.203,Add New General Journal Entry - JV22
July 8 2013, 6:23 pm,28,eshwar,182.182.22.203,Add New General Journal Entry - JV23
July 8 2013, 6:27 pm,,qureshi.haleem,182.182.67.255,User Login
July 8 2013, 6:35 pm,,kashif.saeed,182.182.67.255,User Login
July 8 2013, 6:39 pm,29,kashif.saeed,182.182.67.255,Add New General Journal Entry - BPV201
July 8 2013, 7:00 pm,28,eshwar,182.182.67.255,Update General Journal Entry - JV7
July 8 2013, 7:07 pm,28,eshwar,182.182.67.255,Add New General Journal Entry - JV24
July 8 2013, 7:12 pm,28,eshwar,182.182.67.255,Add New General Journal Entry - JV25
July 9 2013, 9:55 am,,eshwar,182.182.18.233,User Login
July 9 2013, 10:15 am,,qubra.shah,182.182.18.233,User Login
July 9 2013, 10:25 am,,hidayatali,182.182.18.233,User Login
July 9 2013, 10:29 am,30,hidayatali,182.182.18.233,Add New General Journal Entry - BPV283
July 9 2013, 10:31 am,30,hidayatali,182.182.18.233,Add New General Journal Entry - BPV284
July 9 2013, 10:32 am,30,hidayatali,182.182.18.233,Add New General Journal Entry - BPV285
July 9 2013, 10:34 am,30,hidayatali,182.182.18.233,Add New General Journal Entry - BPV286
July 9 2013, 10:36 am,30,hidayatali,182.182.18.233,Add New General Journal Entry - BPV287
July 9 2013, 10:38 am,30,hidayatali,182.182.18.233,Add New General Journal Entry - BPV288
July 9 2013, 10:39 am,30,hidayatali,182.182.18.233,Add New General Journal Entry - BPV289
July 9 2013, 10:42 am,30,hidayatali,182.182.18.233,Add New General Journal Entry - BPV290
July 9 2013, 10:51 am,,ali.shabab,182.182.18.233,User Login
July 9 2013, 11:44 am,,hidayatali,182.182.45.169,User Login
July 9 2013, 11:52 am,,ali.shabab,182.182.45.169,User Login
July 9 2013, 11:57 am,30,hidayatali,182.182.45.169,Add New General Journal Entry - BPV178
July 9 2013, 11:59 am,30,hidayatali,182.182.45.169,Add New General Journal Entry - BPV179
July 9 2013, 12:03 pm,30,hidayatali,182.182.45.169,Add New General Journal Entry - BPV180
July 9 2013, 12:05 pm,30,hidayatali,182.182.45.169,Add New General Journal Entry - BPV181
July 9 2013, 12:06 pm,,zenab.memon,182.182.45.169,User Login
July 9 2013, 12:40 pm,,qureshi.haleem,182.182.6.46,User Login
July 9 2013, 1:19 pm,,ali.shabab,182.182.22.148,User Logout
July 9 2013, 1:23 pm,,kashif.saeed,182.182.22.148,User Login
July 9 2013, 1:23 pm,,kashif.saeed,182.182.22.148,User Login
July 9 2013, 2:10 pm,30,hidayatali,182.182.22.148,Add New General Journal Entry - BPV182
July 9 2013, 2:12 pm,30,hidayatali,182.182.22.148,Add New General Journal Entry - BPV183
July 9 2013, 2:14 pm,30,hidayatali,182.182.22.148,Add New General Journal Entry - BPV184
July 9 2013, 2:16 pm,30,hidayatali,182.182.22.148,Add New General Journal Entry - BPV185
July 9 2013, 2:20 pm,30,hidayatali,182.182.22.148,Add New General Journal Entry - BPV186
July 9 2013, 2:23 pm,30,hidayatali,182.182.22.148,Add New General Journal Entry - BPV187
July 9 2013, 2:27 pm,30,hidayatali,182.182.22.148,Add New General Journal Entry - BPV188
July 9 2013, 2:29 pm,30,hidayatali,182.182.22.148,Add New General Journal Entry - BPV189
July 9 2013, 2:31 pm,30,hidayatali,182.182.22.148,Add New General Journal Entry - BPV190
July 9 2013, 2:33 pm,30,hidayatali,182.182.22.148,Add New General Journal Entry - BPV191
July 9 2013, 2:37 pm,,hidayatali,182.182.22.148,User Logout
July 9 2013, 3:10 pm,,eshwar,182.182.22.148,User Login
July 9 2013, 3:30 pm,,zenab.memon,182.182.12.192,User Login
July 9 2013, 3:33 pm,,ali.shabab,182.182.12.192,User Login
July 9 2013, 3:38 pm,31,ali.shabab,182.182.12.192,Add New General Journal Entry - BPV1022
July 9 2013, 3:39 pm,31,ali.shabab,182.182.12.192,Add New General Journal Entry - BPV1023
July 9 2013, 4:01 pm,,eshwar,182.182.12.192,User Logout
July 9 2013, 4:01 pm,,ali.shabab,182.182.12.192,User Login
July 9 2013, 4:06 pm,31,ali.shabab,182.182.104.75,Add New General Journal Entry - BPV1024
July 9 2013, 4:07 pm,,ali.shabab,182.182.104.75,User Logout
July 9 2013, 4:14 pm,,kashif.saeed,182.182.122.113,User Login
July 9 2013, 4:17 pm,,ali.shabab,182.182.122.113,User Login
July 9 2013, 4:17 pm,,kashif.saeed,182.182.122.113,User Login
July 9 2013, 4:18 pm,,eshwar,182.182.104.75,User Login
July 9 2013, 4:20 pm,31,ali.shabab,182.182.122.113,Update General Journal Entry - BPV1024
July 9 2013, 4:26 pm,28,eshwar,182.182.104.75,Add New General Journal Entry - BPV147
July 9 2013, 4:38 pm,28,eshwar,182.182.104.75,Add New General Journal Entry - BPV148
July 9 2013, 4:42 pm,,qubra.shah,182.182.122.113,User Login
July 9 2013, 4:45 pm,,,182.182.122.113,User Logout
July 9 2013, 4:47 pm,,zenab.memon,182.182.122.113,User Login
July 9 2013, 4:47 pm,16,qubra.shah,182.182.122.113,Add New Bank Check Book - CD
July 9 2013, 4:51 pm,16,qubra.shah,182.182.122.113,Add New General Journal Entry - BPV245
July 9 2013, 5:12 pm,,qubra.shah,182.182.122.113,User Logout
July 9 2013, 5:12 pm,,,182.182.122.113,User Logout
July 10 2013, 10:56 am,,kashif.saeed,182.182.77.46,User Login
July 10 2013, 10:56 am,,kashif.saeed,182.182.77.46,User Login
July 10 2013, 11:02 am,,qubra.shah,182.182.77.46,User Login
July 10 2013, 11:08 am,,kashif.saeed,182.182.29.77,User Login
July 10 2013, 11:10 am,,zenab.memon,182.182.29.77,User Login
July 10 2013, 11:12 am,29,kashif.saeed,182.182.29.77,Add New General Journal Entry - BPV67
July 10 2013, 11:24 am,,hidayatali,182.182.29.77,User Login
July 10 2013, 11:25 am,29,kashif.saeed,182.182.29.77,Add New General Journal Entry - BPV68
July 10 2013, 11:29 am,30,hidayatali,182.182.29.77,Add New General Journal Entry - JV44
July 10 2013, 11:33 am,30,hidayatali,182.182.29.77,Add New General Journal Entry - JV45
July 10 2013, 11:36 am,30,hidayatali,182.182.29.77,Add New General Journal Entry - JV46
July 10 2013, 11:44 am,16,qubra.shah,182.182.29.77,Add New General Journal Entry - BRV11
July 10 2013, 11:45 am,29,kashif.saeed,182.182.29.77,Add New General Journal Entry - BPV69
July 10 2013, 11:47 am,29,kashif.saeed,182.182.29.77,Add New General Journal Entry - BPV70
July 10 2013, 11:50 am,29,kashif.saeed,182.182.29.77,Add New General Journal Entry - BPV71
July 10 2013, 11:52 am,29,kashif.saeed,182.182.29.77,Add New General Journal Entry - BPV72
July 10 2013, 11:53 am,16,qubra.shah,182.182.29.77,Add New General Journal Entry - BRV12
July 10 2013, 11:58 am,16,qubra.shah,182.182.29.77,Add New General Journal Entry - BPV82
July 10 2013, 11:59 am,16,qubra.shah,182.182.29.77,Update General Journal Entry - BPV82
July 10 2013, 12:05 pm,16,qubra.shah,182.182.29.77,Add New General Journal Entry - BRV13
July 10 2013, 12:07 pm,16,qubra.shah,182.182.29.77,Add New General Journal Entry - BPV83
July 10 2013, 12:40 pm,,ali.shabab,182.182.29.77,User Login
July 10 2013, 12:41 pm,,eshwar,182.182.29.77,User Login
July 10 2013, 12:43 pm,28,eshwar,182.182.29.77,Add New General Journal Entry - BPV149
July 10 2013, 12:45 pm,31,ali.shabab,182.182.29.77,Add New General Journal Entry - BPV1025
July 10 2013, 12:49 pm,,ali.shabab,182.182.29.77,User Logout
July 10 2013, 1:09 pm,,hidayatali,182.182.53.200,User Logout
July 10 2013, 3:41 pm,,qubra.shah,182.182.53.200,User Login
July 10 2013, 3:49 pm,,zenab.memon,182.182.53.200,User Logout
July 10 2013, 3:56 pm,,zenab.memon,182.182.53.200,User Login
July 10 2013, 3:57 pm,24,zenab.memon,182.182.53.200,Update General Journal Entry - BPV182
July 10 2013, 4:09 pm,,kashif.saeed,182.182.37.190,User Login
July 10 2013, 4:09 pm,,kashif.saeed,182.182.37.190,User Login
July 10 2013, 4:11 pm,29,kashif.saeed,182.182.37.190,Add New General Journal Entry - BRV6
July 10 2013, 4:16 pm,29,kashif.saeed,182.182.37.190,Add New General Journal Entry - BPV73
July 10 2013, 5:00 pm,24,zenab.memon,182.182.37.190,Add New General Journal Entry - BPV246
July 10 2013, 5:00 pm,28,eshwar,182.182.37.190,Add New General Journal Entry - BPV150
July 10 2013, 5:00 pm,,zenab.memon,182.182.37.190,User Logout
July 10 2013, 5:09 pm,,qubra.shah,182.182.37.190,User Logout
July 11 2013, 10:53 am,,qubra.shah,182.182.120.230,User Login
July 11 2013, 11:00 am,,zenab.memon,182.182.120.230,User Login
July 11 2013, 11:02 am,,kashif.saeed,182.182.120.230,User Login
July 11 2013, 11:08 am,,ali.shabab,182.182.73.172,User Login
July 11 2013, 11:10 am,,hidayatali,182.182.73.172,User Login
July 11 2013, 11:11 am,,zenab.memon,182.182.73.172,User Logout
July 11 2013, 11:13 am,30,hidayatali,182.182.73.172,Add New General Journal Entry - BRV27
July 11 2013, 11:13 am,,kashif.saeed,182.182.73.172,User Login
July 11 2013, 11:19 am,29,kashif.saeed,182.182.73.172,Add New General Journal Entry - JV26
July 11 2013, 11:22 am,29,kashif.saeed,182.182.73.172,Add New General Journal Entry - JV27
July 11 2013, 11:28 am,30,hidayatali,182.182.73.172,Add New General Journal Entry - BPV291
July 11 2013, 11:29 am,31,ali.shabab,182.182.73.172,Add New General Journal Entry - BPV252
July 11 2013, 11:30 am,30,hidayatali,182.182.73.172,Update General Journal Entry - BPV291
July 11 2013, 11:34 am,31,ali.shabab,182.182.73.172,Add New General Journal Entry - BPV1026
July 11 2013, 11:38 am,,ali.shabab,182.182.73.172,User Logout
July 11 2013, 11:43 am,16,qubra.shah,182.182.73.172,Add New General Journal Entry - BPV84
July 11 2013, 11:46 am,29,kashif.saeed,182.182.73.172,Add New General Journal Entry - JV28
July 11 2013, 11:51 am,29,kashif.saeed,182.182.73.172,Add New General Journal Entry - JV29
July 11 2013, 11:56 am,29,kashif.saeed,182.182.73.172,Add New General Journal Entry - JV30
July 11 2013, 11:56 am,16,qubra.shah,182.182.73.172,Add New General Journal Entry - BPV85
July 11 2013, 11:59 am,16,qubra.shah,182.182.73.172,Add New General Journal Entry - BPV86
July 11 2013, 12:01 pm,29,kashif.saeed,182.182.73.172,Add New General Journal Entry - JV31
July 11 2013, 12:02 pm,16,qubra.shah,182.182.73.172,Add New General Journal Entry - BPV87
July 11 2013, 12:03 pm,29,kashif.saeed,182.182.73.172,Add New General Journal Entry - JV32
July 11 2013, 12:09 pm,29,kashif.saeed,182.182.73.172,Add New General Journal Entry - JV33
July 11 2013, 12:15 pm,,ali.shabab,182.182.73.172,User Login
July 11 2013, 12:19 pm,31,ali.shabab,182.182.73.172,Add New General Journal Entry - BPV183
July 11 2013, 12:25 pm,30,hidayatali,182.182.73.172,Add New General Journal Entry - BRV12
July 11 2013, 12:26 pm,16,qubra.shah,182.182.73.172,Add New General Journal Entry - BPV476
July 11 2013, 12:28 pm,30,hidayatali,182.182.73.172,Add New General Journal Entry - BPV127
July 11 2013, 12:35 pm,16,qubra.shah,182.182.73.172,Add New General Journal Entry - BPV477
July 11 2013, 12:39 pm,16,qubra.shah,182.182.73.172,Add New General Journal Entry - BPV478
July 11 2013, 12:44 pm,,hidayatali,182.182.73.172,User Login
July 11 2013, 12:51 pm,16,qubra.shah,182.182.73.172,Add New General Journal Entry - BRV23
July 11 2013, 1:08 pm,16,qubra.shah,182.182.81.65,Add New General Journal Entry - BPV479
July 11 2013, 1:12 pm,16,qubra.shah,182.182.81.65,Add New General Journal Entry - BPV480
July 11 2013, 1:13 pm,30,hidayatali,182.182.81.65,Add New General Journal Entry - BPV192
July 11 2013, 1:15 pm,30,hidayatali,182.182.81.65,Add New General Journal Entry - BPV193
July 11 2013, 1:16 pm,16,qubra.shah,182.182.81.65,Add New General Journal Entry - BPV481
July 11 2013, 1:16 pm,30,hidayatali,182.182.81.65,Add New General Journal Entry - BPV194
July 11 2013, 1:18 pm,30,hidayatali,182.182.81.65,Add New General Journal Entry - BPV195
July 11 2013, 1:19 pm,31,ali.shabab,182.182.81.65,Add New General Journal Entry - BPV184
July 11 2013, 1:19 pm,16,qubra.shah,182.182.81.65,Add New General Journal Entry - BPV184
July 11 2013, 1:20 pm,30,hidayatali,182.182.81.65,Add New General Journal Entry - BPV196
July 11 2013, 1:22 pm,,ali.shabab,182.182.14.46,User Login
July 11 2013, 1:22 pm,30,hidayatali,182.182.81.65,Add New General Journal Entry - BPV197
July 11 2013, 1:24 pm,30,hidayatali,182.182.81.65,Add New General Journal Entry - BPV198
July 11 2013, 1:26 pm,30,hidayatali,182.182.81.65,Add New General Journal Entry - BPV199
July 11 2013, 1:26 pm,16,qubra.shah,182.182.81.65,Update General Journal Entry - BPV184
July 11 2013, 1:27 pm,16,qubra.shah,182.182.81.65,Add New General Journal Entry - BPV483
July 11 2013, 1:29 pm,16,qubra.shah,182.182.81.65,Add New General Journal Entry - BPV484
July 11 2013, 1:32 pm,16,qubra.shah,182.182.81.65,Add New General Journal Entry - BPV485
July 11 2013, 1:32 pm,,ali.shabab,182.182.14.46,User Logout
July 11 2013, 1:34 pm,16,qubra.shah,182.182.81.65,Add New General Journal Entry - BPV486
July 11 2013, 1:36 pm,16,qubra.shah,182.182.81.65,Add New General Journal Entry - BPV487
July 11 2013, 1:39 pm,16,qubra.shah,182.182.81.65,Add New General Journal Entry - BPV488
July 11 2013, 1:40 pm,30,hidayatali,182.182.81.65,Add New General Journal Entry - BPV200
July 11 2013, 1:41 pm,16,qubra.shah,182.182.81.65,Add New General Journal Entry - BPV489
July 11 2013, 1:43 pm,16,qubra.shah,182.182.81.65,Add New General Journal Entry - BPV490
July 11 2013, 1:45 pm,16,qubra.shah,182.182.81.65,Add New General Journal Entry - BPV491
July 11 2013, 1:47 pm,16,qubra.shah,182.182.81.65,Add New General Journal Entry - BPV492
July 11 2013, 1:49 pm,16,qubra.shah,182.182.81.65,Add New General Journal Entry - BPV493
July 11 2013, 1:51 pm,16,qubra.shah,182.182.81.65,Add New General Journal Entry - BPV494
July 11 2013, 2:53 pm,,ali.shabab,182.182.44.233,User Login
July 11 2013, 3:08 pm,,hidayatali,182.182.44.233,User Login
July 11 2013, 3:14 pm,,hidayatali,182.182.44.233,User Logout
July 11 2013, 3:17 pm,,qubra.shah,182.182.113.4,User Logout
July 11 2013, 3:18 pm,,ali.shabab,182.182.113.4,User Login
July 11 2013, 3:30 pm,31,ali.shabab,182.182.113.4,Add New General Journal Entry - BPV185
July 11 2013, 3:39 pm,,ali.shabab,182.182.113.4,User Logout
July 12 2013, 10:00 am,,kashif.saeed,182.182.11.210,User Login
July 12 2013, 10:00 am,,qubra.shah,182.182.11.210,User Login
July 12 2013, 10:10 am,,hidayatali,182.182.11.210,User Login
July 12 2013, 10:15 am,,ali.shabab,182.182.11.210,User Login
July 12 2013, 10:15 am,30,hidayatali,182.182.11.210,Add New General Journal Entry - JV47
July 12 2013, 10:18 am,30,hidayatali,182.182.11.210,Add New General Journal Entry - JV48
July 12 2013, 10:35 am,31,ali.shabab,182.182.73.71,Add New General Journal Entry - BPV186
July 12 2013, 10:48 am,,ali.shabab,182.182.39.139,User Login
July 12 2013, 10:53 am,31,ali.shabab,182.182.39.139,Add New General Journal Entry - BPV1027
July 12 2013, 11:05 am,,hidayatali,182.182.39.139,User Login
July 12 2013, 11:10 am,30,hidayatali,182.182.6.139,Add New General Journal Entry - JV32
July 12 2013, 11:11 am,31,ali.shabab,182.182.6.139,Add New General Journal Entry - BPV187
July 12 2013, 11:12 am,31,ali.shabab,182.182.6.139,Add New General Journal Entry - BPV188
July 12 2013, 11:14 am,31,ali.shabab,182.182.6.139,Update General Journal Entry - BPV188
July 12 2013, 11:17 am,30,hidayatali,182.182.6.139,Add New General Journal Entry - BRV73
July 12 2013, 11:41 am,16,qubra.shah,182.182.6.139,Add New General Journal Entry - BPV88
July 12 2013, 11:43 am,16,qubra.shah,182.182.6.139,Add New General Journal Entry - BPV89
July 12 2013, 11:46 am,,kashif.saeed,182.182.6.139,User Login
July 12 2013, 11:53 am,31,ali.shabab,182.182.6.139,Add New General Journal Entry - BPV1028
July 12 2013, 11:55 am,31,ali.shabab,182.182.6.139,Add New General Journal Entry - BPV1029
July 12 2013, 12:03 pm,,zenab.memon,182.182.6.139,User Login
July 12 2013, 12:06 pm,,eshwar,182.182.6.139,User Login
July 12 2013, 12:13 pm,,hidayatali,182.182.6.139,User Login
July 12 2013, 12:16 pm,28,eshwar,182.182.6.139,Add New General Journal Entry - BPV86
July 12 2013, 12:17 pm,30,hidayatali,182.182.6.139,Update General Journal Entry - BPV120
July 12 2013, 12:18 pm,28,eshwar,182.182.6.139,Update General Journal Entry - BPV86
July 12 2013, 12:22 pm,28,eshwar,182.182.6.139,Add New General Journal Entry - BPV151
July 12 2013, 1:01 pm,24,zenab.memon,182.182.6.139,Update General Journal Entry - BPV77
July 12 2013, 1:14 pm,,qubra.shah,182.182.6.139,User Login
July 12 2013, 1:22 pm,16,qubra.shah,182.182.6.139,Add New General Journal Entry - BPV90
July 12 2013, 1:22 pm,24,zenab.memon,182.182.6.139,Add New General Journal Entry - BRV37
July 12 2013, 1:27 pm,,eshwar,182.182.6.139,User Login
July 12 2013, 1:35 pm,24,zenab.memon,182.182.6.139,Add New General Journal Entry - BPV247
July 12 2013, 1:45 pm,,zenab.memon,182.182.6.139,User Logout
July 12 2013, 3:23 pm,,qubra.shah,182.182.28.247,User Logout
July 15 2013, 10:30 am,,ali.shabab,182.182.119.250,User Login
July 15 2013, 10:40 am,31,ali.shabab,182.182.119.250,Add New General Journal Entry - BPV189
July 15 2013, 10:45 am,,qubra.shah,182.182.119.250,User Login
July 15 2013, 10:50 am,,eshwar,182.182.119.250,User Login
July 15 2013, 11:00 am,,kashif.saeed,182.182.119.250,User Login
July 15 2013, 11:03 am,,hidayatali,182.182.119.250,User Login
July 15 2013, 11:06 am,29,kashif.saeed,182.182.119.250,Add New General Journal Entry - BPV74
July 15 2013, 11:10 am,29,kashif.saeed,182.182.119.250,Add New General Journal Entry - BPV75
July 15 2013, 11:11 am,30,hidayatali,182.182.119.250,Add New General Journal Entry - BPV201
July 15 2013, 11:14 am,29,kashif.saeed,182.182.119.250,Add New General Journal Entry - BPV76
July 15 2013, 11:15 am,30,hidayatali,182.182.119.250,Add New General Journal Entry - BPV202
July 15 2013, 11:20 am,30,hidayatali,182.182.119.250,Add New General Journal Entry - BPV203
July 15 2013, 11:30 am,30,hidayatali,182.182.119.250,Add New General Journal Entry - BPV128
July 15 2013, 11:38 am,16,qubra.shah,182.182.119.250,Add New General Journal Entry - BPV16
July 15 2013, 11:41 am,31,ali.shabab,182.182.119.250,Add New General Journal Entry - BPV190
July 15 2013, 11:49 am,,hidayatali,182.182.119.250,User Logout
July 15 2013, 11:54 am,28,eshwar,182.182.119.250,Add New Chart Of Account - Photostat & Postage Payable
July 15 2013, 12:05 pm,28,eshwar,182.182.119.250,Add New General Journal Entry - JV26
July 15 2013, 12:08 pm,28,eshwar,182.182.119.250,Add New General Journal Entry - JV27
July 15 2013, 12:11 pm,,eshwar,182.182.119.250,User Logout
July 15 2013, 12:12 pm,,qureshi.haleem,182.182.119.250,User Login
July 15 2013, 12:13 pm,20,qureshi.haleem,182.182.119.250,Update Chart Of Account - Photostat & Postage Payable
July 15 2013, 12:14 pm,,eshwar,182.182.119.250,User Login
July 15 2013, 12:14 pm,,eshwar,182.182.119.250,User Login
July 15 2013, 12:18 pm,28,eshwar,182.182.119.250,Add New General Journal Entry - BPV152
July 15 2013, 12:46 pm,,kashif.saeed,182.182.70.159,User Login
July 15 2013, 12:57 pm,,ali.shabab,182.182.7.177,User Login
July 15 2013, 1:04 pm,16,qubra.shah,182.182.7.177,Add New General Journal Entry - BPV17
July 15 2013, 1:14 pm,28,eshwar,182.182.7.177,Add New General Journal Entry - BPV153
July 15 2013, 1:26 pm,16,qubra.shah,182.182.7.177,Add New General Journal Entry - BPV91
July 15 2013, 1:30 pm,31,ali.shabab,182.182.7.177,Add New General Journal Entry - BPV1030
July 15 2013, 1:36 pm,29,kashif.saeed,182.182.7.177,Add New General Journal Entry - BRV7
July 15 2013, 1:58 pm,,qubra.shah,182.182.7.177,User Logout
July 15 2013, 2:43 pm,,kashif.saeed,182.182.65.110,User Login
July 16 2013, 10:21 am,,ali.shabab,182.182.29.200,User Login
July 16 2013, 1:42 pm,,qubra.shah,182.182.116.110,User Login
July 16 2013, 1:53 pm,16,qubra.shah,182.182.116.110,Add New General Journal Entry - BPV92
July 17 2013, 10:05 am,,qubra.shah,182.182.90.101,User Login
July 17 2013, 10:07 am,,kashif.saeed,182.182.90.101,User Login
July 17 2013, 10:16 am,,zenab.memon,182.182.90.101,User Login
July 17 2013, 10:26 am,,eshwar,182.182.90.101,User Login
July 17 2013, 10:30 am,,ali.shabab,182.182.90.101,User Login
July 17 2013, 10:32 am,16,qubra.shah,182.182.90.101,Add New General Journal Entry - BPV495
July 17 2013, 10:33 am,28,eshwar,182.182.90.101,Add New General Journal Entry - BPV154
July 17 2013, 10:37 am,24,zenab.memon,182.182.90.101,Add New General Journal Entry - BPV248
July 17 2013, 10:38 am,16,qubra.shah,182.182.90.101,Add New General Journal Entry - BPV496
July 17 2013, 10:40 am,16,qubra.shah,182.182.90.101,Add New General Journal Entry - BPV497
July 17 2013, 10:41 am,24,zenab.memon,182.182.90.101,Add New General Journal Entry - BPV249
July 17 2013, 11:25 am,,zenab.memon,182.182.90.101,User Logout
July 17 2013, 12:31 pm,16,qubra.shah,182.182.90.101,Add New General Journal Entry - BPV699
July 17 2013, 12:36 pm,31,ali.shabab,182.182.90.101,Add New General Journal Entry - BPV191
July 17 2013, 12:39 pm,16,qubra.shah,182.182.90.101,Add New General Journal Entry - BPV700
July 17 2013, 12:45 pm,,kashif.saeed,182.182.90.101,User Login
July 17 2013, 12:50 pm,29,kashif.saeed,182.182.90.101,Add New General Journal Entry - BPV34
July 17 2013, 1:08 pm,28,eshwar,182.182.90.101,Add New General Journal Entry - JV28
July 17 2013, 1:11 pm,28,eshwar,182.182.90.101,Update General Journal Entry - BPV154
July 17 2013, 1:57 pm,,qubra.shah,182.182.90.101,User Logout
July 17 2013, 2:04 pm,,eshwar,182.182.73.33,User Login
July 17 2013, 3:18 pm,,,182.182.73.33,User Logout
July 17 2013, 3:18 pm,,ali.shabab,182.182.73.33,User Login
July 17 2013, 3:25 pm,31,ali.shabab,182.182.73.33,Add New General Journal Entry - BPV192
July 18 2013, 10:15 am,,ali.shabab,182.182.102.201,User Login
July 18 2013, 10:22 am,31,ali.shabab,182.182.102.201,Add New General Journal Entry - BPV1031
July 18 2013, 10:37 am,,qubra.shah,182.182.102.201,User Login
July 18 2013, 10:39 am,,eshwar,182.182.102.201,User Login
July 18 2013, 10:40 am,,zenab.memon,182.182.102.201,User Login
July 18 2013, 10:42 am,,deedar.ali,182.182.102.201,User Login
July 18 2013, 10:45 am,24,zenab.memon,182.182.102.201,Add New General Journal Entry - BPV250
July 18 2013, 10:50 am,,kashif.saeed,182.182.102.201,User Login
July 18 2013, 11:06 am,22,deedar.ali,182.182.102.201,Add New General Journal Entry - BPV31
July 18 2013, 11:10 am,22,deedar.ali,182.182.102.201,Add New General Journal Entry - BPV32
July 18 2013, 11:14 am,31,ali.shabab,182.182.102.201,Update General Journal Entry - BPV1031
July 18 2013, 11:20 am,,ali.shabab,182.182.102.201,User Logout
July 18 2013, 11:22 am,24,zenab.memon,182.182.102.201,Add New General Journal Entry - BPV251
July 18 2013, 11:29 am,,kashif.saeed,182.182.102.201,User Logout
July 18 2013, 11:32 am,,hidayatali,182.182.102.201,User Login
July 18 2013, 11:32 am,16,qubra.shah,182.182.102.201,Add New General Journal Entry - JV72
July 18 2013, 11:34 am,30,hidayatali,182.182.102.201,Add New General Journal Entry - BPV292
July 18 2013, 11:35 am,16,qubra.shah,182.182.102.201,Add New General Journal Entry - JV73
July 18 2013, 11:37 am,30,hidayatali,182.182.102.201,Add New General Journal Entry - BPV293
July 18 2013, 11:38 am,30,hidayatali,182.182.102.201,Add New General Journal Entry - BPV294
July 18 2013, 11:39 am,,zenab.memon,182.182.102.201,User Logout
July 18 2013, 11:39 am,16,qubra.shah,182.182.102.201,Add New General Journal Entry - JV74
July 18 2013, 11:44 am,,kashif.saeed,182.182.102.201,User Login
July 18 2013, 11:44 am,16,qubra.shah,182.182.102.201,Add New General Journal Entry - JV75
July 18 2013, 11:47 am,16,qubra.shah,182.182.102.201,Add New General Journal Entry - JV76
July 18 2013, 11:53 am,16,qubra.shah,182.182.102.201,Add New General Journal Entry - JV77
July 18 2013, 11:55 am,,hidayatali,182.182.102.201,User Logout
July 18 2013, 11:59 am,16,qubra.shah,182.182.102.201,Add New General Journal Entry - JV78
July 18 2013, 12:02 pm,16,qubra.shah,182.182.102.201,Add New General Journal Entry - JV79
July 18 2013, 12:04 pm,16,qubra.shah,182.182.102.201,Add New General Journal Entry - JV80
July 18 2013, 1:38 pm,,ali.shabab,182.182.102.201,User Login
July 18 2013, 1:38 pm,,ali.shabab,182.182.102.201,User Logout
July 18 2013, 1:56 pm,,qubra.shah,182.182.102.201,User Logout
July 18 2013, 2:06 pm,,ali.shabab,182.182.86.65,User Login
July 18 2013, 2:10 pm,31,ali.shabab,182.182.86.65,Add New General Journal Entry - BPV193
July 18 2013, 2:23 pm,,ali.shabab,182.182.86.65,User Logout
July 18 2013, 3:03 pm,,deedar.ali,182.182.86.65,User Logout
July 19 2013, 10:18 am,,ali.shabab,182.182.64.207,User Login
July 19 2013, 10:27 am,,ali.shabab,182.182.64.207,User Login
July 19 2013, 10:28 am,,qubra.shah,182.182.64.207,User Login
July 19 2013, 10:31 am,31,ali.shabab,182.182.64.207,Add New General Journal Entry - BPV194
July 19 2013, 11:11 am,,kashif.saeed,182.182.64.207,User Login
July 19 2013, 11:21 am,31,ali.shabab,182.182.64.207,Add New General Journal Entry - BPV1032
July 19 2013, 11:29 am,16,qubra.shah,182.182.64.207,Add New General Journal Entry - JV81
July 19 2013, 11:31 am,,ali.shabab,182.182.64.207,User Logout
July 19 2013, 11:31 am,29,kashif.saeed,182.182.64.207,Add New General Journal Entry - BPV202
July 19 2013, 11:35 am,29,kashif.saeed,182.182.64.207,Add New General Journal Entry - BPV203
July 19 2013, 11:42 am,29,kashif.saeed,182.182.64.207,Update General Journal Entry - BPV202
July 19 2013, 12:59 pm,16,qubra.shah,182.182.64.207,Add New General Journal Entry - BPV498
July 19 2013, 1:04 pm,16,qubra.shah,182.182.64.207,Add New General Journal Entry - JV82
July 19 2013, 1:07 pm,,zenab.memon,182.182.64.207,User Login
July 19 2013, 1:12 pm,24,zenab.memon,182.182.64.207,Add New General Journal Entry - BPV102
July 19 2013, 1:12 pm,,zenab.memon,182.182.64.207,User Logout
July 19 2013, 1:14 pm,,zenab.memon,182.182.64.207,User Login
July 19 2013, 1:15 pm,24,zenab.memon,182.182.64.207,Update General Journal Entry - BPV102
July 19 2013, 1:43 pm,16,qubra.shah,182.182.64.207,Add New General Journal Entry - BPV499
July 19 2013, 1:56 pm,,qubra.shah,182.182.64.207,User Logout
July 22 2013, 10:10 am,,qubra.shah,182.182.32.71,User Login
July 22 2013, 10:47 am,,kashif.saeed,182.182.32.71,User Login
July 22 2013, 11:25 am,,zenab.memon,182.182.32.71,User Login
July 22 2013, 11:31 am,16,qubra.shah,182.182.32.71,Update General Journal Entry - BRV29
July 22 2013, 11:32 am,24,zenab.memon,182.182.32.71,Add New General Journal Entry - BRV38
July 22 2013, 11:32 am,,zenab.memon,182.182.32.71,User Logout
July 22 2013, 11:32 am,,zenab.memon,182.182.32.71,User Login
July 22 2013, 11:32 am,,zenab.memon,182.182.32.71,User Login
July 22 2013, 12:08 pm,,ali.shabab,182.182.32.71,User Login
July 22 2013, 12:10 pm,,eshwar,182.182.32.71,User Login
July 22 2013, 12:11 pm,28,eshwar,182.182.32.71,Add New Chart Of Account - FEG Formation Doc Expense
July 22 2013, 12:16 pm,31,ali.shabab,182.182.32.71,Add New General Journal Entry - BPV195
July 22 2013, 12:22 pm,,ali.shabab,182.182.32.71,User Logout
July 22 2013, 12:28 pm,,zenab.memon,182.182.32.71,User Logout
July 22 2013, 12:30 pm,,zenab.memon,182.182.32.71,User Login
July 22 2013, 1:08 pm,,zenab.memon,182.182.32.71,User Logout
July 22 2013, 1:25 pm,,hidayatali,182.182.32.71,User Login
July 22 2013, 1:27 pm,30,hidayatali,182.182.32.71,Add New Bank Check Book - F
July 22 2013, 1:29 pm,30,hidayatali,182.182.32.71,Add New General Journal Entry - BPV204
July 22 2013, 1:31 pm,30,hidayatali,182.182.32.71,Add New General Journal Entry - BPV205
July 22 2013, 1:32 pm,30,hidayatali,182.182.32.71,Add New General Journal Entry - BPV206
July 22 2013, 1:35 pm,30,hidayatali,182.182.32.71,Add New General Journal Entry - BPV207
July 22 2013, 1:37 pm,30,hidayatali,182.182.32.71,Add New General Journal Entry - BPV208
July 22 2013, 1:39 pm,30,hidayatali,182.182.32.71,Add New General Journal Entry - BPV209
July 22 2013, 1:43 pm,30,hidayatali,182.182.32.71,Add New General Journal Entry - BPV210
July 22 2013, 1:46 pm,30,hidayatali,182.182.32.71,Add New General Journal Entry - BPV211
July 22 2013, 1:47 pm,30,hidayatali,182.182.32.71,Add New General Journal Entry - BPV212
July 22 2013, 1:49 pm,30,hidayatali,182.182.32.71,Add New General Journal Entry - BPV213
July 22 2013, 2:34 pm,,hidayatali,182.182.32.71,User Login
July 22 2013, 2:36 pm,30,hidayatali,182.182.32.71,Add New General Journal Entry - BPV214
July 22 2013, 2:37 pm,30,hidayatali,182.182.32.71,Add New General Journal Entry - BPV215
July 22 2013, 2:43 pm,,eshwar,182.182.32.71,User Login
July 22 2013, 3:11 pm,16,qubra.shah,182.182.40.230,Add New General Journal Entry - BPV500
July 22 2013, 3:18 pm,,hidayatali,182.182.40.230,User Logout
July 22 2013, 3:29 pm,,qubra.shah,182.182.40.230,User Logout
July 22 2013, 3:29 pm,,,182.182.40.230,User Logout
July 23 2013, 10:52 am,,zenab.memon,182.182.32.119,User Login
July 23 2013, 11:13 am,,hidayatali,182.182.32.119,User Login
July 23 2013, 11:16 am,30,hidayatali,182.182.32.119,Add New General Journal Entry - JV39
July 23 2013, 11:17 am,,qubra.shah,182.182.32.119,User Login
July 23 2013, 11:18 am,30,hidayatali,182.182.32.119,Add New General Journal Entry - JV40
July 23 2013, 11:19 am,30,hidayatali,182.182.32.119,Add New General Journal Entry - JV41
July 23 2013, 11:21 am,30,hidayatali,182.182.32.119,Add New General Journal Entry - JV42
July 23 2013, 11:21 am,,sikandar.ali,182.182.32.119,User Login
July 23 2013, 11:22 am,30,hidayatali,182.182.32.119,Add New General Journal Entry - JV43
July 23 2013, 11:24 am,30,hidayatali,182.182.32.119,Add New General Journal Entry - JV44
July 23 2013, 11:27 am,,zenab.memon,182.182.32.119,User Logout
July 23 2013, 11:30 am,30,hidayatali,182.182.32.119,Update General Journal Entry - JV42
July 23 2013, 11:31 am,14,sikandar.ali,182.182.32.119,Add New General Journal Entry - BPV115
July 23 2013, 11:41 am,30,hidayatali,182.182.32.119,Add New General Journal Entry - BPV129
July 23 2013, 11:45 am,30,hidayatali,182.182.32.119,Add New General Journal Entry - BPV130
July 23 2013, 11:53 am,,zenab.memon,182.182.32.119,User Login
July 23 2013, 11:59 am,14,sikandar.ali,182.182.32.119,Add New General Journal Entry - JV65
July 23 2013, 2:35 pm,,hidayatali,182.182.37.135,User Login
July 23 2013, 2:46 pm,,ali.shabab,182.182.37.135,User Login
July 23 2013, 2:52 pm,31,ali.shabab,182.182.37.135,Add New General Journal Entry - BPV1033
July 23 2013, 3:00 pm,,ali.shabab,182.182.37.135,User Logout
July 23 2013, 3:01 pm,30,hidayatali,182.182.37.135,Add New General Journal Entry - JV45
July 23 2013, 3:08 pm,30,hidayatali,182.182.37.135,Add New General Journal Entry - JV46
July 23 2013, 3:10 pm,30,hidayatali,182.182.37.135,Add New General Journal Entry - JV47
July 23 2013, 3:12 pm,30,hidayatali,182.182.37.135,Add New General Journal Entry - JV48
July 23 2013, 3:16 pm,30,hidayatali,182.182.37.135,Add New General Journal Entry - JV49
July 23 2013, 3:17 pm,30,hidayatali,182.182.37.135,Add New General Journal Entry - JV50
July 23 2013, 3:19 pm,30,hidayatali,182.182.37.135,Add New General Journal Entry - JV51
July 23 2013, 3:20 pm,30,hidayatali,182.182.37.135,Add New General Journal Entry - JV52
July 23 2013, 3:22 pm,30,hidayatali,182.182.37.135,Add New General Journal Entry - JV53
July 23 2013, 3:23 pm,30,hidayatali,182.182.37.135,Add New General Journal Entry - JV54
July 23 2013, 3:26 pm,30,hidayatali,182.182.37.135,Add New General Journal Entry - JV55
July 23 2013, 3:29 pm,,qubra.shah,182.182.37.135,User Logout
July 23 2013, 3:35 pm,,hidayatali,182.182.37.135,User Logout
July 23 2013, 3:46 pm,,ali.shabab,182.182.37.135,User Login
July 23 2013, 3:54 pm,,ali.shabab,182.182.37.135,User Logout
July 24 2013, 10:03 am,,qubra.shah,182.182.71.223,User Login
July 24 2013, 10:56 am,,hidayatali,182.182.67.127,User Login
July 24 2013, 11:01 am,30,hidayatali,182.182.67.127,Add New General Journal Entry - BPV131
July 24 2013, 11:02 am,16,qubra.shah,182.182.67.127,Add New General Journal Entry - BPV19
July 24 2013, 11:08 am,,eshwar,182.182.67.127,User Login
July 24 2013, 11:13 am,28,eshwar,182.182.67.127,Add New General Journal Entry - BPV155
July 24 2013, 11:20 am,28,eshwar,182.182.67.127,Add New General Journal Entry - BPV156
July 24 2013, 11:31 am,28,eshwar,182.182.67.127,Update General Journal Entry - BPV155
July 24 2013, 11:52 am,,qureshi.haleem,182.182.67.127,User Login
July 24 2013, 12:17 pm,,kashif.saeed,182.182.67.127,User Login
July 24 2013, 12:54 pm,29,kashif.saeed,182.182.67.127,Add New General Journal Entry - JV150
July 24 2013, 12:57 pm,29,kashif.saeed,182.182.67.127,Add New General Journal Entry - JV151
July 24 2013, 12:59 pm,29,kashif.saeed,182.182.67.127,Add New General Journal Entry - JV152
July 24 2013, 1:10 pm,29,kashif.saeed,182.182.70.59,Add New General Journal Entry - JV153
July 24 2013, 1:15 pm,29,kashif.saeed,182.182.70.59,Add New General Journal Entry - JV154
July 24 2013, 1:20 pm,29,kashif.saeed,182.182.70.59,Add New General Journal Entry - JV155
July 24 2013, 1:26 pm,29,kashif.saeed,182.182.70.59,Add New General Journal Entry - JV156
July 24 2013, 1:32 pm,29,kashif.saeed,182.182.70.59,Add New General Journal Entry - JV157
July 24 2013, 1:39 pm,29,kashif.saeed,182.182.70.59,Add New General Journal Entry - JV158
July 24 2013, 1:42 pm,29,kashif.saeed,182.182.70.59,Add New General Journal Entry - JV159
July 24 2013, 1:52 pm,29,kashif.saeed,182.182.70.59,Add New General Journal Entry - JV160
July 24 2013, 1:58 pm,,ali.shabab,182.182.70.59,User Login
July 24 2013, 2:16 pm,,eshwar,182.182.13.250,User Login
July 24 2013, 2:17 pm,,ali.shabab,182.182.13.250,User Login
July 24 2013, 2:18 pm,,kashif.saeed,182.182.13.250,User Login
July 24 2013, 2:35 pm,28,eshwar,182.182.13.250,Update General Journal Entry - BPV251
July 24 2013, 2:37 pm,29,kashif.saeed,182.182.13.250,Add New General Journal Entry - JV161
July 24 2013, 2:40 pm,29,kashif.saeed,182.182.13.250,Update General Journal Entry - JV159
July 24 2013, 2:44 pm,29,kashif.saeed,182.182.13.250,Add New General Journal Entry - BRV21
July 24 2013, 2:46 pm,29,kashif.saeed,182.182.13.250,Add New General Journal Entry - BPV204
July 24 2013, 3:37 pm,,eshwar,182.182.13.250,User Logout
July 24 2013, 3:38 pm,,ali.shabab,182.182.13.250,User Login
July 24 2013, 3:40 pm,31,ali.shabab,182.182.13.250,Add New General Journal Entry - JV108
July 24 2013, 3:46 pm,31,ali.shabab,182.182.13.250,Add New General Journal Entry - JV109
July 24 2013, 3:48 pm,31,ali.shabab,182.182.13.250,Add New General Journal Entry - JV110
July 24 2013, 3:53 pm,31,ali.shabab,182.182.13.250,Add New General Journal Entry - JV111
July 24 2013, 3:56 pm,31,ali.shabab,182.182.13.250,Add New General Journal Entry - JV112
July 24 2013, 3:57 pm,31,ali.shabab,182.182.13.250,Add New General Journal Entry - JV113
July 24 2013, 3:58 pm,31,ali.shabab,182.182.13.250,Add New General Journal Entry - JV114
July 24 2013, 4:00 pm,31,ali.shabab,182.182.13.250,Add New General Journal Entry - JV115
July 24 2013, 4:01 pm,31,ali.shabab,182.182.13.250,Add New General Journal Entry - JV116
July 24 2013, 4:02 pm,31,ali.shabab,182.182.13.250,Add New General Journal Entry - JV117
July 24 2013, 4:06 pm,31,ali.shabab,182.182.13.250,Add New General Journal Entry - JV118
July 24 2013, 4:09 pm,31,ali.shabab,182.182.13.250,Add New General Journal Entry - JV119
July 24 2013, 4:25 pm,,ali.shabab,182.182.13.250,User Logout
July 25 2013, 10:17 am,,hidayatali,182.182.100.24,User Login
July 25 2013, 10:22 am,30,hidayatali,182.182.100.24,Add New General Journal Entry - BPV132
July 25 2013, 10:32 am,,qubra.shah,182.182.100.24,User Login
July 25 2013, 10:47 am,16,qubra.shah,182.182.100.24,Add New General Journal Entry - BPV20
July 25 2013, 10:48 am,,kashif.saeed,182.182.100.24,User Login
July 25 2013, 10:55 am,29,kashif.saeed,182.182.100.24,Add New General Journal Entry - JV162
July 25 2013, 10:57 am,29,kashif.saeed,182.182.100.24,Add New General Journal Entry - JV163
July 25 2013, 10:59 am,29,kashif.saeed,182.182.100.24,Add New General Journal Entry - JV164
July 25 2013, 11:03 am,29,kashif.saeed,182.182.100.24,Add New General Journal Entry - JV165
July 25 2013, 11:03 am,16,qubra.shah,182.182.100.24,Add New General Journal Entry - BPV103
July 25 2013, 11:06 am,29,kashif.saeed,182.182.100.24,Add New General Journal Entry - JV166
July 25 2013, 11:10 am,29,kashif.saeed,182.182.100.24,Add New General Journal Entry - JV167
July 25 2013, 11:13 am,29,kashif.saeed,182.182.100.24,Add New General Journal Entry - JV168
July 25 2013, 11:18 am,16,qubra.shah,182.182.100.24,Add New General Journal Entry - BPV185
July 25 2013, 11:19 am,29,kashif.saeed,182.182.100.24,Add New General Journal Entry - JV169
July 25 2013, 11:21 am,16,qubra.shah,182.182.100.24,Add New General Journal Entry - BPV186
July 25 2013, 11:21 am,29,kashif.saeed,182.182.100.24,Add New General Journal Entry - JV170
July 25 2013, 11:23 am,16,qubra.shah,182.182.100.24,Add New General Journal Entry - BPV187
July 25 2013, 11:27 am,16,qubra.shah,182.182.100.24,Update General Journal Entry - BPV103
July 25 2013, 11:33 am,16,qubra.shah,182.182.100.24,Add New General Journal Entry - BPV188
July 25 2013, 11:35 am,16,qubra.shah,182.182.100.24,Add New General Journal Entry - BPV189
July 25 2013, 11:37 am,29,kashif.saeed,182.182.100.24,Add New General Journal Entry - JV171
July 25 2013, 11:38 am,16,qubra.shah,182.182.100.24,Add New General Journal Entry - BPV190
July 25 2013, 11:40 am,,hidayatali,182.182.100.24,User Logout
July 25 2013, 11:41 am,16,qubra.shah,182.182.100.24,Add New General Journal Entry - BPV191
July 25 2013, 11:43 am,29,kashif.saeed,182.182.100.24,Add New General Journal Entry - JV172
July 25 2013, 11:47 am,29,kashif.saeed,182.182.100.24,Add New General Journal Entry - BRV22
July 25 2013, 11:49 am,29,kashif.saeed,182.182.100.24,Add New General Journal Entry - BPV205
July 25 2013, 12:01 pm,29,kashif.saeed,182.182.100.24,Update General Journal Entry - BPV204
July 25 2013, 12:18 pm,,eshwar,182.182.114.209,User Login
July 25 2013, 12:26 pm,28,eshwar,182.182.114.209,Add New General Journal Entry - BPV253
July 25 2013, 12:35 pm,28,eshwar,182.182.114.209,Add New General Journal Entry - BPV254
July 25 2013, 12:42 pm,28,eshwar,182.182.114.209,Add New General Journal Entry - BPV255
July 25 2013, 12:47 pm,28,eshwar,182.182.114.209,Add New General Journal Entry - BPV256
July 25 2013, 12:54 pm,,,182.182.114.209,User Logout
July 25 2013, 1:05 pm,28,eshwar,182.182.114.209,Update General Journal Entry - JV92
July 25 2013, 1:08 pm,28,eshwar,182.182.114.209,Update General Journal Entry - BPV249
July 25 2013, 1:11 pm,28,eshwar,182.182.114.209,Update General Journal Entry - JV92
July 25 2013, 1:12 pm,28,eshwar,182.182.114.209,Update General Journal Entry - BPV249
July 25 2013, 1:14 pm,28,eshwar,182.182.114.209,Update General Journal Entry - BPV249
July 25 2013, 1:14 pm,29,kashif.saeed,182.182.114.209,Add New General Journal Entry - JV173
July 25 2013, 1:14 pm,28,eshwar,182.182.114.209,Update General Journal Entry - BPV249
July 25 2013, 1:16 pm,28,eshwar,182.182.114.209,Update General Journal Entry - JV93
July 25 2013, 1:16 pm,29,kashif.saeed,182.182.114.209,Add New General Journal Entry - JV174
July 25 2013, 1:17 pm,29,kashif.saeed,182.182.114.209,Add New General Journal Entry - JV175
July 25 2013, 1:20 pm,29,kashif.saeed,182.182.114.209,Add New General Journal Entry - JV176
July 25 2013, 1:22 pm,29,kashif.saeed,182.182.114.209,Add New General Journal Entry - JV177
July 25 2013, 1:25 pm,29,kashif.saeed,182.182.114.209,Add New General Journal Entry - JV178
July 25 2013, 1:27 pm,29,kashif.saeed,182.182.114.209,Add New General Journal Entry - JV179
July 25 2013, 1:32 pm,29,kashif.saeed,182.182.114.209,Add New General Journal Entry - JV180
July 25 2013, 1:34 pm,28,eshwar,182.182.114.209,Update General Journal Entry - BPV256
July 25 2013, 1:34 pm,29,kashif.saeed,182.182.114.209,Add New General Journal Entry - JV181
July 25 2013, 1:36 pm,29,kashif.saeed,182.182.114.209,Add New General Journal Entry - JV182
July 25 2013, 1:40 pm,28,eshwar,182.182.114.209,Add New General Journal Entry - BPV257
July 25 2013, 1:43 pm,28,eshwar,182.182.114.209,Add New General Journal Entry - BPV258
July 25 2013, 1:48 pm,28,eshwar,182.182.114.209,Add New General Journal Entry - BPV259
July 25 2013, 1:57 pm,28,eshwar,182.182.114.209,Add New General Journal Entry - BPV260
July 25 2013, 2:02 pm,28,eshwar,182.182.114.209,Add New General Journal Entry - BPV261
July 25 2013, 2:09 pm,28,eshwar,182.182.114.209,Add New General Journal Entry - BPV262
July 25 2013, 2:16 pm,28,eshwar,182.182.114.209,Add New General Journal Entry - BPV263
July 25 2013, 2:23 pm,29,kashif.saeed,182.182.114.209,Add New General Journal Entry - JV183
July 25 2013, 2:25 pm,29,kashif.saeed,182.182.114.209,Update General Journal Entry - JV183
July 25 2013, 2:26 pm,,hidayatali,182.182.114.209,User Login
July 25 2013, 2:28 pm,30,hidayatali,182.182.114.209,Add New General Journal Entry - BPV216
July 25 2013, 2:30 pm,30,hidayatali,182.182.114.209,Add New General Journal Entry - BPV217
July 25 2013, 2:31 pm,29,kashif.saeed,182.182.114.209,Add New General Journal Entry - BRV23
July 25 2013, 2:33 pm,29,kashif.saeed,182.182.114.209,Add New General Journal Entry - JV184
July 25 2013, 2:40 pm,,hidayatali,182.182.114.209,User Logout
July 25 2013, 2:52 pm,29,kashif.saeed,182.182.114.209,Update General Journal Entry - JV184
July 25 2013, 2:54 pm,29,kashif.saeed,182.182.114.209,Add New General Journal Entry - BPV206
July 25 2013, 3:04 pm,,eshwar,182.182.114.209,User Login
July 25 2013, 3:09 pm,29,kashif.saeed,182.182.114.209,Add New General Journal Entry - BRV24
July 25 2013, 3:10 pm,28,eshwar,182.182.114.209,Add New General Journal Entry - BPV1034
July 25 2013, 3:12 pm,29,kashif.saeed,182.182.114.209,Add New General Journal Entry - BRV25
July 26 2013, 9:48 am,,ali.shabab,182.182.88.39,User Login
July 26 2013, 10:37 am,,eshwar,182.182.88.39,User Login
July 26 2013, 11:00 am,,qubra.shah,182.182.88.39,User Login
July 26 2013, 11:07 am,,kashif.saeed,182.182.88.39,User Login
July 26 2013, 11:10 am,29,kashif.saeed,182.182.88.39,Add New General Journal Entry - BPV77
July 26 2013, 11:19 am,28,eshwar,182.182.88.39,Add New General Journal Entry - BPV157
July 26 2013, 11:38 am,28,eshwar,182.182.88.39,Add New General Journal Entry - BPV1035
July 26 2013, 12:26 pm,16,qubra.shah,182.182.62.81,Update General Journal Entry - BPV82
July 26 2013, 12:49 pm,16,qubra.shah,182.182.62.81,Add New General Journal Entry - JV35
July 26 2013, 12:57 pm,29,kashif.saeed,182.182.62.81,Add New General Journal Entry - BPV207
July 26 2013, 1:00 pm,16,qubra.shah,182.182.14.214,Add New General Journal Entry - JV36
July 26 2013, 1:01 pm,,kashif.saeed,182.182.14.214,User Login
July 26 2013, 1:05 pm,29,kashif.saeed,182.182.14.214,Add New General Journal Entry - BPV208
July 26 2013, 1:07 pm,29,kashif.saeed,182.182.14.214,Add New General Journal Entry - BPV209
July 26 2013, 1:10 pm,29,kashif.saeed,182.182.14.214,Add New General Journal Entry - BPV210
July 26 2013, 1:12 pm,29,kashif.saeed,182.182.14.214,Add New General Journal Entry - BPV211
July 26 2013, 1:18 pm,29,kashif.saeed,182.182.14.214,Add New General Journal Entry - BPV212
July 26 2013, 1:24 pm,16,qubra.shah,182.182.14.214,Add New General Journal Entry - JV37
July 26 2013, 1:30 pm,16,qubra.shah,182.182.14.214,Add New General Journal Entry - JV38
July 26 2013, 1:45 pm,16,qubra.shah,182.182.14.214,Add New General Journal Entry - JV39
July 26 2013, 1:54 pm,,eshwar,182.182.14.214,User Login
July 26 2013, 2:58 pm,,ali.shabab,182.182.79.100,User Login
July 26 2013, 3:02 pm,31,ali.shabab,182.182.79.100,Add New General Journal Entry - BPV1036
July 26 2013, 3:05 pm,31,ali.shabab,182.182.79.100,Add New General Journal Entry - BPV1037
July 26 2013, 3:09 pm,,,182.182.79.100,User Logout
July 29 2013, 10:01 am,,hidayatali,182.182.44.102,User Login
July 29 2013, 10:04 am,30,hidayatali,182.182.44.102,Add New General Journal Entry - BRV28
July 29 2013, 10:06 am,30,hidayatali,182.182.44.102,Add New General Journal Entry - BRV29
July 29 2013, 10:23 am,,kashif.saeed,182.182.44.102,User Login
July 29 2013, 10:27 am,30,hidayatali,182.182.44.102,Add New General Journal Entry - BPV295
July 29 2013, 10:29 am,30,hidayatali,182.182.44.102,Add New General Journal Entry - BPV296
July 29 2013, 10:39 am,,ali.shabab,182.182.44.102,User Login
July 29 2013, 10:53 am,,zenab.memon,182.182.44.102,User Login
July 29 2013, 10:58 am,31,ali.shabab,182.182.44.102,Add New General Journal Entry - BPV196
July 29 2013, 11:05 am,24,zenab.memon,182.182.44.102,Add New General Journal Entry - JV204
July 29 2013, 11:05 am,31,ali.shabab,182.182.44.102,Add New General Journal Entry - BPV197
July 29 2013, 11:06 am,30,hidayatali,182.182.44.102,Add New General Journal Entry - BPV218
July 29 2013, 11:08 am,30,hidayatali,182.182.44.102,Add New General Journal Entry - BPV219
July 29 2013, 11:08 am,31,ali.shabab,182.182.44.102,Add New General Journal Entry - BPV198
July 29 2013, 11:10 am,30,hidayatali,182.182.44.102,Add New General Journal Entry - BPV220
July 29 2013, 11:12 am,31,ali.shabab,182.182.44.102,Add New General Journal Entry - BPV199
July 29 2013, 11:13 am,30,hidayatali,182.182.44.102,Add New General Journal Entry - BPV221
July 29 2013, 11:15 am,30,hidayatali,182.182.44.102,Add New General Journal Entry - BPV222
July 29 2013, 11:17 am,31,ali.shabab,182.182.44.102,Add New General Journal Entry - BPV200
July 29 2013, 11:20 am,30,hidayatali,182.182.44.102,Add New General Journal Entry - BPV223
July 29 2013, 11:23 am,30,hidayatali,182.182.44.102,Add New General Journal Entry - BPV224
July 29 2013, 11:25 am,30,hidayatali,182.182.44.102,Add New General Journal Entry - BPV225
July 29 2013, 11:28 am,30,hidayatali,182.182.44.102,Add New General Journal Entry - BPV226
July 29 2013, 11:31 am,30,hidayatali,182.182.44.102,Add New General Journal Entry - BPV227
July 29 2013, 11:34 am,31,ali.shabab,182.182.44.102,Add New General Journal Entry - BPV201
July 29 2013, 11:37 am,24,zenab.memon,182.182.44.102,Add New General Journal Entry - JV205
July 29 2013, 11:38 am,31,ali.shabab,182.182.44.102,Add New General Journal Entry - BPV202
July 29 2013, 11:41 am,31,ali.shabab,182.182.44.102,Add New General Journal Entry - BPV203
July 29 2013, 11:43 am,24,zenab.memon,182.182.44.102,Add New General Journal Entry - JV206
July 29 2013, 11:45 am,,qubra.shah,182.182.44.102,User Login
July 29 2013, 11:50 am,29,kashif.saeed,182.182.44.102,Add New General Journal Entry - BPV213
July 29 2013, 12:01 pm,24,zenab.memon,182.182.44.102,Add New General Journal Entry - JV207
July 29 2013, 12:18 pm,,kashif.saeed,182.182.44.102,User Login
July 29 2013, 12:21 pm,29,kashif.saeed,182.182.44.102,Add New General Journal Entry - BPV78
July 29 2013, 12:22 pm,31,ali.shabab,182.182.44.102,Add New General Journal Entry - BPV204
July 29 2013, 12:25 pm,31,ali.shabab,182.182.44.102,Add New General Journal Entry - BPV205
July 29 2013, 12:26 pm,,hidayatali,182.182.44.102,User Login
July 29 2013, 12:32 pm,30,hidayatali,182.182.44.102,Add New General Journal Entry - BPV133
July 29 2013, 12:33 pm,16,qubra.shah,182.182.44.102,Add New General Journal Entry - BPV18
July 29 2013, 12:35 pm,29,kashif.saeed,182.182.44.102,Add New General Journal Entry - BPV79
July 29 2013, 12:36 pm,16,qubra.shah,182.182.44.102,Add New General Journal Entry - BPV19
July 29 2013, 12:36 pm,30,hidayatali,182.182.44.102,Add New General Journal Entry - BPV134
July 29 2013, 12:38 pm,16,qubra.shah,182.182.44.102,Add New General Journal Entry - BPV20
July 29 2013, 12:39 pm,29,kashif.saeed,182.182.44.102,Add New General Journal Entry - BPV80
July 29 2013, 12:39 pm,16,qubra.shah,182.182.44.102,Update General Journal Entry - BPV19
July 29 2013, 12:42 pm,30,hidayatali,182.182.44.102,Add New General Journal Entry - BPV135
July 29 2013, 12:43 pm,29,kashif.saeed,182.182.44.102,Add New General Journal Entry - BPV81
July 29 2013, 12:50 pm,30,hidayatali,182.182.44.102,Add New General Journal Entry - BPV136
July 29 2013, 12:52 pm,16,qubra.shah,182.182.44.102,Add New General Journal Entry - BPV21
July 29 2013, 12:52 pm,30,hidayatali,182.182.44.102,Add New General Journal Entry - BPV137
July 29 2013, 12:52 pm,29,kashif.saeed,182.182.44.102,Add New General Journal Entry - BPV82
July 29 2013, 12:55 pm,30,hidayatali,182.182.44.102,Add New Bank Check Book - F
July 29 2013, 12:56 pm,29,kashif.saeed,182.182.44.102,Add New General Journal Entry - BPV83
July 29 2013, 12:58 pm,31,ali.shabab,182.182.44.102,Add New General Journal Entry - BPV206
July 29 2013, 12:59 pm,30,hidayatali,182.182.44.102,Add New General Journal Entry - BPV138
July 29 2013, 1:01 pm,30,hidayatali,182.182.44.102,Add New General Journal Entry - BPV139
July 29 2013, 1:02 pm,31,ali.shabab,182.182.44.102,Add New General Journal Entry - BPV207
July 29 2013, 1:03 pm,30,hidayatali,182.182.44.102,Add New General Journal Entry - BPV140
July 29 2013, 1:05 pm,31,ali.shabab,182.182.44.102,Add New General Journal Entry - BPV208
July 29 2013, 1:05 pm,30,hidayatali,182.182.44.102,Add New General Journal Entry - BPV141
July 29 2013, 1:09 pm,30,hidayatali,182.182.44.102,Add New General Journal Entry - BPV142
July 29 2013, 1:12 pm,30,hidayatali,182.182.44.102,Add New General Journal Entry - BPV143
July 29 2013, 1:15 pm,30,hidayatali,182.182.44.102,Add New General Journal Entry - BPV144
July 29 2013, 1:15 pm,31,ali.shabab,182.182.44.102,Add New General Journal Entry - BPV209
July 29 2013, 1:16 pm,30,hidayatali,182.182.44.102,Add New General Journal Entry - BPV145
July 29 2013, 1:18 pm,30,hidayatali,182.182.44.102,Add New General Journal Entry - BPV146
July 29 2013, 1:21 pm,30,hidayatali,182.182.44.102,Add New General Journal Entry - BPV147
July 29 2013, 1:23 pm,30,hidayatali,182.182.44.102,Add New General Journal Entry - BPV148
July 29 2013, 1:24 pm,30,hidayatali,182.182.44.102,Add New General Journal Entry - BPV149
July 29 2013, 1:26 pm,31,ali.shabab,182.182.44.102,Add New General Journal Entry - BPV210
July 29 2013, 1:28 pm,,eshwar,182.182.44.102,User Login
July 29 2013, 1:29 pm,31,ali.shabab,182.182.44.102,Add New General Journal Entry - BPV211
July 29 2013, 1:29 pm,30,hidayatali,182.182.44.102,Add New General Journal Entry - BPV150
July 29 2013, 1:31 pm,30,hidayatali,182.182.44.102,Add New General Journal Entry - BPV151
July 29 2013, 1:41 pm,28,eshwar,182.182.44.102,Add New General Journal Entry - BPV158
July 29 2013, 1:45 pm,,qubra.shah,182.182.44.102,User Logout
July 29 2013, 2:00 pm,31,ali.shabab,182.182.44.102,Add New General Journal Entry - BPV212
July 29 2013, 2:02 pm,31,ali.shabab,182.182.44.102,Add New General Journal Entry - BPV213
July 29 2013, 2:05 pm,,ali.shabab,182.182.60.154,User Login
July 29 2013, 2:11 pm,31,ali.shabab,182.182.60.154,Add New General Journal Entry - BPV214
July 29 2013, 2:19 pm,28,eshwar,182.182.60.154,Add New General Journal Entry - BPV159
July 29 2013, 2:29 pm,28,eshwar,182.182.60.154,Add New General Journal Entry - BPV160
July 29 2013, 2:32 pm,28,eshwar,182.182.60.154,Add New General Journal Entry - BPV161
July 29 2013, 2:35 pm,28,eshwar,182.182.60.154,Add New General Journal Entry - BPV162
July 29 2013, 2:39 pm,28,eshwar,182.182.60.154,Add New General Journal Entry - BPV163
July 29 2013, 2:45 pm,28,eshwar,182.182.60.154,Add New General Journal Entry - BPV164
July 29 2013, 2:51 pm,,kashif.saeed,182.182.60.154,User Login
July 29 2013, 2:57 pm,28,eshwar,182.182.60.154,Add New General Journal Entry - BPV165
July 29 2013, 3:01 pm,,hidayatali,182.182.60.154,User Login
July 29 2013, 3:02 pm,28,eshwar,182.182.60.154,Add New General Journal Entry - BPV166
July 29 2013, 3:02 pm,30,hidayatali,182.182.60.154,Update General Journal Entry - BPV149
July 29 2013, 3:04 pm,29,kashif.saeed,182.182.60.154,Add New General Journal Entry - BPV35
July 29 2013, 3:04 pm,28,eshwar,182.182.60.154,Add New General Journal Entry - BPV167
July 29 2013, 3:07 pm,28,eshwar,182.182.60.154,Add New General Journal Entry - BPV168
July 29 2013, 3:09 pm,28,eshwar,182.182.60.154,Add New General Journal Entry - BPV169
July 29 2013, 3:11 pm,28,eshwar,182.182.60.154,Add New General Journal Entry - BPV170
July 29 2013, 3:12 pm,,hidayatali,182.182.60.154,User Logout
July 29 2013, 3:23 pm,28,eshwar,182.182.60.154,Update General Journal Entry - BPV158
July 30 2013, 10:06 am,,kashif.saeed,182.182.123.49,User Login
July 30 2013, 10:09 am,,eshwar,182.182.123.49,User Login
July 30 2013, 10:11 am,29,kashif.saeed,182.182.123.49,Add New General Journal Entry - JV185
July 30 2013, 10:12 am,,qubra.shah,182.182.123.49,User Login
July 30 2013, 10:14 am,,zenab.memon,182.182.123.49,User Login
July 30 2013, 10:16 am,24,zenab.memon,182.182.123.49,Add New General Journal Entry - BPV104
July 30 2013, 10:17 am,29,kashif.saeed,182.182.123.49,Add New General Journal Entry - BPV84
July 30 2013, 10:20 am,29,kashif.saeed,182.182.123.49,Add New General Journal Entry - BPV85
July 30 2013, 10:22 am,29,kashif.saeed,182.182.123.49,Add New General Journal Entry - BPV86
July 30 2013, 10:28 am,,ali.shabab,182.182.123.49,User Login
July 30 2013, 10:36 am,16,qubra.shah,182.182.20.182,Add New General Journal Entry - BRV14
July 30 2013, 10:41 am,16,qubra.shah,182.182.20.182,Add New General Journal Entry - BRV15
July 30 2013, 10:42 am,,deedar.ali,182.182.20.182,User Login
July 30 2013, 10:48 am,24,zenab.memon,182.182.20.182,Add New General Journal Entry - JV208
July 30 2013, 10:52 am,24,zenab.memon,182.182.20.182,Add New General Journal Entry - JV209
July 30 2013, 11:00 am,16,qubra.shah,182.182.20.182,Add New General Journal Entry - BPV93
July 30 2013, 11:03 am,16,qubra.shah,182.182.20.182,Add New General Journal Entry - BPV94
July 30 2013, 11:04 am,24,zenab.memon,182.182.20.182,Add New General Journal Entry - JV210
July 30 2013, 11:06 am,16,qubra.shah,182.182.20.182,Add New General Journal Entry - BPV95
July 30 2013, 11:09 am,16,qubra.shah,182.182.20.182,Add New General Journal Entry - BPV96
July 30 2013, 11:11 am,16,qubra.shah,182.182.20.182,Add New General Journal Entry - BPV97
July 30 2013, 11:12 am,,sikandar.ali,182.182.20.182,User Login
July 30 2013, 11:14 am,24,zenab.memon,182.182.20.182,Add New General Journal Entry - JV211
July 30 2013, 11:14 am,16,qubra.shah,182.182.20.182,Add New General Journal Entry - BPV98
July 30 2013, 11:16 am,14,sikandar.ali,182.182.20.182,Add New Bank Check Book - M
July 30 2013, 11:19 am,,kashif.saeed,182.182.20.182,User Login
July 30 2013, 11:20 am,14,sikandar.ali,182.182.20.182,Add New General Journal Entry - BPV116
July 30 2013, 11:27 am,29,kashif.saeed,182.182.20.182,Add New General Journal Entry - BPV87
July 30 2013, 11:27 am,,ali.shabab,182.182.20.182,User Logout
July 30 2013, 11:33 am,24,zenab.memon,182.182.20.182,Add New General Journal Entry - JV212
July 30 2013, 11:35 am,24,zenab.memon,182.182.20.182,Add New General Journal Entry - JV213
July 30 2013, 11:38 am,16,qubra.shah,182.182.20.182,Update General Journal Entry - BPV97
July 30 2013, 11:39 am,24,zenab.memon,182.182.20.182,Add New General Journal Entry - JV214
July 30 2013, 11:39 am,,zenab.memon,182.182.20.182,User Logout
July 30 2013, 11:55 am,16,qubra.shah,182.182.20.182,Add New General Journal Entry - BPV99
July 30 2013, 12:16 pm,29,kashif.saeed,182.182.20.182,Add New General Journal Entry - BPV214
July 30 2013, 1:04 pm,,,182.182.20.182,User Logout
July 30 2013, 1:15 pm,29,kashif.saeed,182.182.20.182,Add New General Journal Entry - BPV36
July 30 2013, 1:22 pm,,kashif.saeed,182.182.89.172,User Login
July 30 2013, 1:23 pm,,eshwar,182.182.89.172,User Login
July 30 2013, 1:29 pm,29,kashif.saeed,182.182.89.172,Add New General Journal Entry - BPV37
July 30 2013, 1:32 pm,29,kashif.saeed,182.182.89.172,Add New General Journal Entry - BPV38
July 30 2013, 1:49 pm,,hidayatali,182.182.89.172,User Login
July 30 2013, 1:51 pm,30,hidayatali,182.182.89.172,Add New General Journal Entry - JV56
July 30 2013, 2:35 pm,,hidayatali,182.182.90.150,User Login
July 30 2013, 2:39 pm,30,hidayatali,182.182.90.150,Add New General Journal Entry - JV57
July 30 2013, 2:53 pm,30,hidayatali,182.182.90.150,Add New General Journal Entry - JV58
July 30 2013, 3:00 pm,30,hidayatali,182.182.90.150,Add New General Journal Entry - JV59
July 30 2013, 3:06 pm,30,hidayatali,182.182.90.150,Add New General Journal Entry - JV60
July 30 2013, 3:21 pm,30,hidayatali,182.182.90.150,Add New General Journal Entry - BPV152
July 30 2013, 3:22 pm,,,182.182.90.150,User Logout
July 30 2013, 3:24 pm,,hidayatali,182.182.90.150,User Logout
July 31 2013, 10:19 am,,qubra.shah,182.182.66.243,User Login
July 31 2013, 10:20 am,,eshwar,182.182.66.243,User Login
July 31 2013, 10:25 am,28,eshwar,182.182.66.243,Update General Journal Entry - BPV158
July 31 2013, 11:06 am,,hidayatali,182.182.65.115,User Login
July 31 2013, 11:12 am,30,hidayatali,182.182.65.115,Add New General Journal Entry - BPV153
July 31 2013, 11:19 am,,deedar.ali,182.182.65.115,User Login
July 31 2013, 11:34 am,22,deedar.ali,182.182.65.115,Add New General Journal Entry - BPV33
July 31 2013, 11:46 am,,kashif.saeed,182.182.65.115,User Login
July 31 2013, 11:53 am,29,kashif.saeed,182.182.65.115,Add New General Journal Entry - BPV215
July 31 2013, 11:54 am,,ali.shabab,182.182.65.115,User Login
July 31 2013, 11:56 am,22,deedar.ali,182.182.65.115,Update General Journal Entry - BPV33
July 31 2013, 11:56 am,29,kashif.saeed,182.182.65.115,Add New General Journal Entry - BPV216
July 31 2013, 11:59 am,31,ali.shabab,182.182.65.115,Add New General Journal Entry - BPV1038
July 31 2013, 12:04 pm,,,182.182.65.115,User Logout
July 31 2013, 12:08 pm,31,ali.shabab,182.182.65.115,Update General Journal Entry - BPV212
July 31 2013, 12:12 pm,,zenab.memon,182.182.65.115,User Login
July 31 2013, 12:13 pm,,,182.182.65.115,User Logout
July 31 2013, 12:27 pm,,qubra.shah,182.182.65.115,User Login
July 31 2013, 1:00 pm,16,qubra.shah,182.182.65.115,Add New General Journal Entry - BPV501
July 31 2013, 1:07 pm,,ali.shabab,182.182.65.115,User Login
July 31 2013, 1:08 pm,16,qubra.shah,182.182.65.115,Add New General Journal Entry - BPV502
July 31 2013, 1:12 pm,16,qubra.shah,182.182.65.115,Add New General Journal Entry - BPV503
July 31 2013, 1:12 pm,31,ali.shabab,182.182.65.115,Add New General Journal Entry - BPV1039
July 31 2013, 1:16 pm,16,qubra.shah,182.182.65.115,Add New General Journal Entry - BPV504
July 31 2013, 1:18 pm,,zenab.memon,182.182.65.115,User Logout
July 31 2013, 1:20 pm,,zenab.memon,182.182.65.115,User Login
July 31 2013, 1:34 pm,,kashif.saeed,182.182.65.115,User Login
July 31 2013, 2:32 pm,,,182.182.1.102,User Logout
July 31 2013, 2:50 pm,,eshwar,182.182.1.102,User Login
July 31 2013, 3:22 pm,28,eshwar,182.182.1.102,Add New General Journal Entry - BPV171
July 31 2013, 3:24 pm,,qubra.shah,182.182.1.102,User Logout
July 31 2013, 3:28 pm,24,zenab.memon,182.182.1.102,Add New General Journal Entry - BPV252
July 31 2013, 3:35 pm,,zenab.memon,182.182.1.102,User Logout
July 31 2013, 3:41 pm,,hidayatali,182.182.1.102,User Login
July 31 2013, 3:45 pm,30,hidayatali,182.182.1.102,Add New General Journal Entry - BPV154
July 31 2013, 3:47 pm,30,hidayatali,182.182.1.102,Add New General Journal Entry - BPV155
July 31 2013, 3:49 pm,30,hidayatali,182.182.1.102,Add New General Journal Entry - BPV156
July 31 2013, 3:51 pm,30,hidayatali,182.182.1.102,Add New General Journal Entry - BPV157
July 31 2013, 3:52 pm,30,hidayatali,182.182.1.102,Add New General Journal Entry - BPV158
July 31 2013, 3:54 pm,30,hidayatali,182.182.1.102,Add New General Journal Entry - BPV159
July 31 2013, 3:55 pm,30,hidayatali,182.182.1.102,Add New General Journal Entry - BPV160
July 31 2013, 3:57 pm,30,hidayatali,182.182.1.102,Add New General Journal Entry - BPV161
July 31 2013, 4:00 pm,,hidayatali,182.182.1.102,User Logout
