May 1 2016, 12:01 pm,,kashif.saeed,39.38.48.185,User Login
May 1 2016, 12:25 pm,,ghulam.kazim,119.154.244.63,User Login
May 1 2016, 2:02 pm,,ghulam.kazim,119.154.244.63,User Logout
May 2 2016, 10:19 am,,kashif.saeed,39.38.20.4,User Login
May 2 2016, 11:38 am,,ghulam.kazim,39.38.25.82,User Login
May 2 2016, 2:30 pm,,qurban.ali,39.38.56.35,User Login
May 2 2016, 2:38 pm,35,qurban.ali,39.38.56.35,Add New General Journal Entry - BPV114
May 2 2016, 2:54 pm,35,qurban.ali,39.38.3.138,Add New General Journal Entry - BPV115
May 2 2016, 3:08 pm,35,qurban.ali,39.38.3.138,Add New General Journal Entry - BPV116
May 2 2016, 3:15 pm,35,qurban.ali,39.38.3.138,Add New General Journal Entry - BPV117
May 2 2016, 3:27 pm,35,qurban.ali,39.38.3.138,Add New General Journal Entry - BPV118
May 2 2016, 3:55 pm,,kashif.saeed,39.38.3.60,User Login
May 2 2016, 4:03 pm,35,qurban.ali,39.38.3.138,Add New General Journal Entry - BPV119
May 2 2016, 4:13 pm,35,qurban.ali,39.38.3.138,Add New General Journal Entry - BPV120
May 3 2016, 12:32 pm,,qurban.ali,39.38.25.111,User Login
May 3 2016, 12:39 pm,,qurban.ali,39.38.25.111,User Logout
May 3 2016, 4:11 pm,,kashif.saeed,39.38.51.6,User Login
May 4 2016, 12:14 pm,,qurban.ali,39.38.3.25,User Login
May 4 2016, 2:47 pm,,kashif.saeed,39.38.36.14,User Login
May 4 2016, 2:57 pm,29,kashif.saeed,39.38.36.14,Add New General Journal Entry - BPV418
May 4 2016, 4:01 pm,29,kashif.saeed,39.38.36.14,Update General Journal Entry - JV26
May 4 2016, 4:02 pm,29,kashif.saeed,39.38.36.14,Update General Journal Entry - BRV39
May 4 2016, 4:30 pm,,,39.38.53.64,User Logout
May 5 2016, 10:46 am,,kashif.saeed,39.38.40.131,User Login
May 5 2016, 10:52 am,,qurban.ali,39.38.40.131,User Login
May 5 2016, 5:11 pm,,qurban.ali,39.38.7.107,User Logout
May 6 2016, 9:34 am,,qurban.ali,39.38.58.113,User Login
May 6 2016, 9:46 am,35,qurban.ali,39.38.58.113,Add New General Journal Entry - BPV121
May 6 2016, 10:47 am,,kashif.saeed,39.38.12.37,User Login
May 6 2016, 12:24 pm,,admin,39.38.12.37,User Login
May 6 2016, 12:56 pm,,kashif.saeed,39.38.12.37,User Login
May 6 2016, 1:06 pm,1,admin,39.38.12.37,Update Employee - zenab.memon
May 6 2016, 1:06 pm,1,admin,39.38.12.37,Update Employee - marvi.maznani
May 6 2016, 1:07 pm,1,admin,39.38.12.37,Update Employee - eshwar
May 6 2016, 1:08 pm,1,admin,39.38.12.37,Update Employee - hidayatali
May 6 2016, 1:08 pm,1,admin,39.38.12.37,Update Employee - haris.panhwer
May 6 2016, 1:09 pm,1,admin,39.38.12.37,Update Employee - qubra.shah
May 6 2016, 1:42 pm,1,admin,39.38.36.94,Add New Project - WASH Services under UN Maternal and Child Stunting Reduction Program
May 6 2016, 3:03 pm,,admin,39.38.46.56,User Login
May 6 2016, 3:06 pm,,admin,39.38.46.56,User Logout
May 9 2016, 10:48 am,,kashif.saeed,39.38.3.14,User Login
May 9 2016, 11:30 am,,admin,39.38.3.14,User Login
May 9 2016, 11:41 am,1,admin,39.38.3.14,Add New Budget - WASH Services under UN Maternal and Child Stunting Reduction Program
May 9 2016, 12:55 pm,,qurban.ali,39.38.25.127,User Login
May 9 2016, 2:51 pm,,admin,39.38.39.216,User Logout
May 9 2016, 3:07 pm,35,qurban.ali,39.38.39.216,Add New General Journal Entry - BPV122
May 9 2016, 3:11 pm,35,qurban.ali,39.38.39.216,Add New Bank Check Book - UN
May 9 2016, 3:16 pm,35,qurban.ali,39.38.39.216,Add New General Journal Entry - BPV123
May 9 2016, 3:19 pm,35,qurban.ali,39.38.39.216,Add New Bank Check Book - UN
May 9 2016, 3:22 pm,35,qurban.ali,39.38.39.216,Add New General Journal Entry - BPV124
May 9 2016, 3:28 pm,35,qurban.ali,39.38.39.216,Add New General Journal Entry - BPV125
May 9 2016, 3:33 pm,35,qurban.ali,39.38.39.216,Add New General Journal Entry - BPV126
May 9 2016, 4:13 pm,29,kashif.saeed,39.38.39.216,Add New General Journal Entry - BPV419
May 9 2016, 4:16 pm,29,kashif.saeed,39.38.39.216,Add New General Journal Entry - BPV420
May 9 2016, 4:21 pm,29,kashif.saeed,39.38.39.216,Add New General Journal Entry - BPV421
May 9 2016, 4:28 pm,29,kashif.saeed,39.38.39.216,Add New General Journal Entry - BPV422
May 9 2016, 4:33 pm,29,kashif.saeed,39.38.39.216,Add New General Journal Entry - BPV423
May 9 2016, 4:38 pm,,,39.38.39.216,User Logout
May 9 2016, 5:29 pm,,qurban.ali,39.38.39.218,User Login
May 10 2016, 9:27 am,,qurban.ali,39.38.46.147,User Login
May 10 2016, 10:22 am,,kashif.saeed,39.38.61.200,User Login
May 10 2016, 10:22 am,,admin,39.38.61.200,User Login
May 10 2016, 1:33 pm,,admin,39.38.61.200,User Logout
May 10 2016, 4:09 pm,,kashif.saeed,39.38.40.153,User Login
May 10 2016, 5:35 pm,,qurban.ali,39.38.40.153,User Logout
May 11 2016, 12:08 pm,,kashif.saeed,39.38.18.76,User Login
May 11 2016, 6:20 pm,,qurban.ali,39.38.17.114,User Login
May 11 2016, 6:21 pm,35,qurban.ali,39.38.17.114,Add New Bank Check Book - SU
May 11 2016, 6:26 pm,35,qurban.ali,39.38.17.114,Add New General Journal Entry - BPV127
May 11 2016, 6:30 pm,,qurban.ali,39.38.17.114,User Logout
May 12 2016, 10:46 am,,qurban.ali,39.38.2.171,User Login
May 12 2016, 10:51 am,35,qurban.ali,39.38.11.60,Update General Journal Entry - JV13
May 12 2016, 10:52 am,,kashif.saeed,39.38.11.60,User Login
May 12 2016, 2:07 pm,35,qurban.ali,39.38.37.28,Add New General Journal Entry - BPV128
May 12 2016, 2:25 pm,35,qurban.ali,39.38.37.28,Add New General Journal Entry - BPV129
May 12 2016, 2:41 pm,,qurban.ali,39.38.37.28,User Logout
May 13 2016, 11:26 am,,kashif.saeed,39.38.3.236,User Login
May 16 2016, 12:15 pm,,kashif.saeed,39.38.13.238,User Login
May 16 2016, 12:25 pm,29,kashif.saeed,39.38.13.238,Add New General Journal Entry - BPV28
May 16 2016, 2:53 pm,29,kashif.saeed,39.38.13.238,Add New General Journal Entry - BPV29
May 16 2016, 3:26 pm,,qurban.ali,39.38.13.238,User Login
May 16 2016, 4:54 pm,35,qurban.ali,39.38.13.238,Add New General Journal Entry - BPV130
May 16 2016, 4:56 pm,35,qurban.ali,39.38.13.238,Add New Bank Check Book - UN
May 16 2016, 5:16 pm,35,qurban.ali,39.38.15.194,Add New General Journal Entry - BPV131
May 16 2016, 6:04 pm,,qurban.ali,39.38.30.43,User Logout
May 17 2016, 10:45 am,,kashif.saeed,39.38.14.89,User Login
May 18 2016, 12:27 pm,,kashif.saeed,39.38.43.69,User Login
May 18 2016, 12:39 pm,29,kashif.saeed,39.38.43.69,Add New General Journal Entry - BRV53
May 18 2016, 12:42 pm,29,kashif.saeed,39.38.43.69,Add New General Journal Entry - BPV424
May 18 2016, 12:52 pm,29,kashif.saeed,39.38.43.69,Add New General Journal Entry - BRV54
May 18 2016, 12:53 pm,29,kashif.saeed,39.38.43.69,Add New General Journal Entry - BPV425
May 18 2016, 12:59 pm,29,kashif.saeed,39.38.43.69,Add New General Journal Entry - BRV55
May 18 2016, 1:18 pm,,kashif.saeed,39.38.43.69,User Logout
May 18 2016, 1:19 pm,,kashif.saeed,39.38.43.69,User Login
May 18 2016, 5:39 pm,,qurban.ali,39.38.25.186,User Login
May 18 2016, 5:52 pm,35,qurban.ali,39.38.57.87,Add New General Journal Entry - JV27
May 18 2016, 5:59 pm,35,qurban.ali,39.38.57.123,Add New General Journal Entry - BPV132
May 18 2016, 6:06 pm,35,qurban.ali,39.38.57.123,Add New General Journal Entry - BPV133
May 18 2016, 6:07 pm,35,qurban.ali,39.38.57.123,Update General Journal Entry - BPV133
May 18 2016, 6:23 pm,35,qurban.ali,39.38.57.123,Add New General Journal Entry - BPV134
May 18 2016, 7:05 pm,35,qurban.ali,39.38.57.123,Update General Journal Entry - BPV134
May 18 2016, 7:07 pm,,qurban.ali,39.38.57.123,User Logout
May 19 2016, 10:35 am,,qurban.ali,39.38.47.52,User Login
May 19 2016, 11:25 am,,admin,39.38.54.138,User Login
May 19 2016, 11:53 am,,qurban.ali,39.38.55.15,User Login
May 19 2016, 12:14 pm,,kashif.saeed,39.38.55.15,User Login
May 19 2016, 12:47 pm,29,kashif.saeed,39.38.6.3,Add New General Journal Entry - BPV670
May 19 2016, 2:39 pm,,qurban.ali,39.38.15.177,User Logout
May 19 2016, 3:18 pm,,qurban.ali,39.38.15.177,User Login
May 19 2016, 5:06 pm,,qurban.ali,39.38.15.177,User Logout
May 19 2016, 5:08 pm,,qurban.ali,39.38.15.177,User Login
May 19 2016, 5:20 pm,,qurban.ali,39.38.15.177,User Logout
May 20 2016, 11:14 am,,kashif.saeed,39.38.7.252,User Login
May 20 2016, 11:33 am,,qurban.ali,39.38.7.252,User Login
May 20 2016, 11:38 am,35,qurban.ali,39.38.7.252,Add New General Journal Entry - JV28
May 20 2016, 11:49 am,35,qurban.ali,39.38.7.252,Add New General Journal Entry - JV29
May 20 2016, 11:51 am,35,qurban.ali,39.38.7.252,Update General Journal Entry - BPV118
May 20 2016, 12:11 pm,35,qurban.ali,39.38.7.252,Add New General Journal Entry - BPV135
May 20 2016, 12:17 pm,35,qurban.ali,39.38.7.252,Add New General Journal Entry - BPV136
May 20 2016, 4:53 pm,35,qurban.ali,39.38.61.32,Add New Bank Check Book - UN
May 20 2016, 4:54 pm,35,qurban.ali,39.38.61.32,Add New Bank Check Book - UN
May 20 2016, 4:56 pm,35,qurban.ali,39.38.61.32,Add New Bank Check Book - SU
May 20 2016, 5:07 pm,35,qurban.ali,39.38.61.32,Add New General Journal Entry - BPV137
May 20 2016, 6:02 pm,,qurban.ali,39.38.7.87,User Logout
May 23 2016, 11:55 am,,qurban.ali,39.38.52.152,User Login
May 23 2016, 12:00 pm,35,qurban.ali,39.38.52.152,Add New General Journal Entry - BRV64
May 23 2016, 12:06 pm,35,qurban.ali,39.38.52.152,Add New General Journal Entry - BPV671
May 23 2016, 12:09 pm,35,qurban.ali,39.38.52.152,Add New General Journal Entry - BPV672
May 23 2016, 12:13 pm,35,qurban.ali,39.38.52.152,Add New General Journal Entry - BPV673
May 23 2016, 12:16 pm,35,qurban.ali,39.38.52.152,Add New General Journal Entry - BPV674
May 23 2016, 12:22 pm,35,qurban.ali,39.38.52.152,Add New General Journal Entry - BPV675
May 23 2016, 12:24 pm,35,qurban.ali,39.38.52.152,Add New General Journal Entry - BPV676
May 23 2016, 12:28 pm,35,qurban.ali,39.38.52.152,Add New General Journal Entry - BPV677
May 23 2016, 12:31 pm,35,qurban.ali,39.38.52.152,Add New General Journal Entry - BPV678
May 23 2016, 12:33 pm,35,qurban.ali,39.38.52.152,Add New General Journal Entry - BPV679
May 23 2016, 12:35 pm,35,qurban.ali,39.38.52.152,Add New General Journal Entry - BPV680
May 23 2016, 12:37 pm,35,qurban.ali,39.38.52.152,Add New General Journal Entry - BPV681
May 23 2016, 12:42 pm,35,qurban.ali,39.38.52.152,Update General Journal Entry - BPV675
May 23 2016, 12:50 pm,35,qurban.ali,39.38.52.152,Add New General Journal Entry - BPV682
May 23 2016, 2:35 pm,35,qurban.ali,39.38.16.5,Add New General Journal Entry - BPV138
May 23 2016, 3:25 pm,35,qurban.ali,39.38.23.101,Add New General Journal Entry - BPV139
May 23 2016, 4:48 pm,,qurban.ali,39.38.23.101,User Logout
May 25 2016, 9:47 am,,qurban.ali,39.38.7.20,User Login
May 25 2016, 9:55 am,35,qurban.ali,39.38.32.140,Add New General Journal Entry - BPV140
May 25 2016, 10:01 am,35,qurban.ali,39.38.32.140,Add New General Journal Entry - BPV141
May 25 2016, 10:02 am,,qurban.ali,39.38.32.140,User Logout
May 25 2016, 10:16 am,,kashif.saeed,39.38.32.140,User Login
May 25 2016, 10:28 am,29,kashif.saeed,39.38.32.140,Add New General Journal Entry - BPV30
May 25 2016, 6:04 pm,,qurban.ali,39.38.46.110,User Login
May 25 2016, 6:12 pm,35,qurban.ali,39.38.46.110,Add New General Journal Entry - BPV142
May 25 2016, 6:15 pm,35,qurban.ali,39.38.46.110,Add New General Journal Entry - JV30
May 25 2016, 6:41 pm,35,qurban.ali,39.38.46.110,Add New General Journal Entry - BPV143
May 25 2016, 6:46 pm,35,qurban.ali,39.38.46.110,Add New General Journal Entry - BPV144
May 25 2016, 6:50 pm,35,qurban.ali,39.38.46.110,Add New General Journal Entry - BPV145
May 25 2016, 6:55 pm,35,qurban.ali,39.38.46.110,Add New General Journal Entry - JV31
May 25 2016, 7:04 pm,,qurban.ali,39.38.46.110,User Logout
May 27 2016, 10:22 am,,kashif.saeed,39.38.3.63,User Login
May 27 2016, 10:34 am,29,kashif.saeed,39.38.3.63,Add New General Journal Entry - BPV936
May 27 2016, 10:47 am,,qurban.ali,39.38.3.63,User Login
May 27 2016, 11:06 am,29,kashif.saeed,39.38.3.63,Add New General Journal Entry - BPV937
May 30 2016, 12:38 pm,,qurban.ali,39.38.36.118,User Login
May 30 2016, 1:16 pm,35,qurban.ali,39.38.36.118,Add New General Journal Entry - BPV146
May 30 2016, 1:19 pm,35,qurban.ali,39.38.36.118,Add New General Journal Entry - BPV147
May 30 2016, 1:22 pm,35,qurban.ali,39.38.36.118,Add New General Journal Entry - BPV148
May 30 2016, 1:25 pm,35,qurban.ali,39.38.36.118,Add New General Journal Entry - BPV149
May 30 2016, 1:28 pm,35,qurban.ali,39.38.36.118,Add New General Journal Entry - BPV150
May 30 2016, 1:31 pm,35,qurban.ali,39.38.36.118,Add New General Journal Entry - BPV151
May 30 2016, 1:34 pm,35,qurban.ali,39.38.36.118,Add New General Journal Entry - BPV152
May 30 2016, 1:37 pm,35,qurban.ali,39.38.36.118,Add New General Journal Entry - BPV153
May 30 2016, 2:26 pm,35,qurban.ali,39.38.56.126,Add New General Journal Entry - BPV154
May 30 2016, 2:33 pm,35,qurban.ali,39.38.56.126,Add New General Journal Entry - BPV155
May 30 2016, 3:18 pm,35,qurban.ali,39.38.63.81,Add New General Journal Entry - BPV156
May 30 2016, 3:51 pm,35,qurban.ali,39.38.63.81,Add New General Journal Entry - BPV157
May 30 2016, 3:53 pm,35,qurban.ali,39.38.63.81,Add New General Journal Entry - BPV158
May 30 2016, 3:55 pm,35,qurban.ali,39.38.63.81,Update General Journal Entry - BPV158
May 30 2016, 4:05 pm,,qurban.ali,39.38.63.81,User Logout
May 31 2016, 10:06 am,,qurban.ali,39.38.20.41,User Login
May 31 2016, 10:13 am,35,qurban.ali,39.38.20.41,Add New General Journal Entry - BPV159
May 31 2016, 10:16 am,35,qurban.ali,39.38.20.41,Add New General Journal Entry - BPV160
May 31 2016, 10:27 am,35,qurban.ali,39.38.20.41,Add New General Journal Entry - BPV161
May 31 2016, 11:14 am,35,qurban.ali,39.38.26.123,Add New General Journal Entry - BPV162
May 31 2016, 11:49 am,35,qurban.ali,39.38.27.65,Add New General Journal Entry - BPV163
May 31 2016, 12:51 pm,35,qurban.ali,39.38.27.65,Add New General Journal Entry - BPV683
May 31 2016, 1:16 pm,35,qurban.ali,39.38.27.65,Add New General Journal Entry - BPV684
May 31 2016, 1:34 pm,,qurban.ali,39.38.27.65,User Logout
