October 1 2018, 10:21 am,,ghulam.kazim,39.38.23.46,User Login
October 1 2018, 10:49 am,,ghulam.kazim,39.38.23.46,User Login
October 1 2018, 11:28 am,34,ghulam.kazim,39.38.44.201,Add New General Journal Entry - BRV34
October 1 2018, 1:02 pm,,ghulam.kazim,39.38.44.201,User Login
October 1 2018, 3:28 pm,,ghulam.kazim,39.38.59.93,User Login
October 1 2018, 3:29 pm,,ghulam.kazim,39.38.59.93,User Login
October 2 2018, 9:03 am,,ghulam.kazim,39.38.55.222,User Login
October 2 2018, 9:10 am,34,ghulam.kazim,39.38.55.222,Add New General Journal Entry - BPV250
October 2 2018, 9:13 am,34,ghulam.kazim,39.38.55.222,Add New General Journal Entry - BPV251
October 2 2018, 10:12 am,34,ghulam.kazim,39.38.55.222,Add New General Journal Entry - BPV252
October 2 2018, 10:29 am,,ghulam.kazim,39.38.55.222,User Login
October 2 2018, 10:51 am,34,ghulam.kazim,39.38.55.222,Update General Journal Entry - JV44
October 2 2018, 10:58 am,34,ghulam.kazim,39.38.55.222,Update General Journal Entry - JV44
October 2 2018, 11:48 am,,ghulam.kazim,39.38.7.29,User Login
October 2 2018, 11:55 am,34,ghulam.kazim,39.38.7.29,Add New General Journal Entry - BPV253
October 2 2018, 11:58 am,34,ghulam.kazim,39.38.7.29,Update General Journal Entry - BPV253
October 2 2018, 12:12 pm,34,ghulam.kazim,39.38.7.29,Add New General Journal Entry - BPV254
October 2 2018, 12:22 pm,34,ghulam.kazim,39.38.7.29,Add New General Journal Entry - BPV59
October 2 2018, 12:51 pm,34,ghulam.kazim,39.38.7.29,Update General Journal Entry - BPV59
October 2 2018, 1:27 pm,34,ghulam.kazim,39.38.7.29,Add New General Journal Entry - BPV363
October 2 2018, 1:30 pm,34,ghulam.kazim,39.38.7.29,Update General Journal Entry - BPV363
October 2 2018, 1:33 pm,34,ghulam.kazim,39.38.7.29,Add New General Journal Entry - BPV364
October 2 2018, 1:35 pm,34,ghulam.kazim,39.38.7.29,Update General Journal Entry - BPV364
October 2 2018, 3:29 pm,,ghulam.kazim,39.38.7.29,User Login
October 2 2018, 3:36 pm,,ghulam.kazim,39.38.7.29,User Login
October 2 2018, 4:30 pm,,ghulam.kazim,39.38.7.29,User Login
October 2 2018, 4:30 pm,,ghulam.kazim,39.38.7.29,User Login
October 2 2018, 5:44 pm,34,ghulam.kazim,39.38.7.29,Add New General Journal Entry - JV96
October 2 2018, 6:19 pm,34,ghulam.kazim,39.38.7.29,Add New General Journal Entry - JV97
October 2 2018, 6:31 pm,34,ghulam.kazim,39.38.7.29,Add New General Journal Entry - JV98
October 2 2018, 6:33 pm,34,ghulam.kazim,39.38.7.29,Update General Journal Entry - JV98
October 3 2018, 10:38 am,,ghulam.kazim,39.38.34.152,User Login
October 3 2018, 10:41 am,,ghulam.kazim,39.38.34.152,User Login
October 3 2018, 10:55 am,34,ghulam.kazim,39.38.34.152,Add New General Journal Entry - JV99
October 3 2018, 11:46 am,34,ghulam.kazim,39.38.34.152,Add New General Journal Entry - JV100
October 3 2018, 11:47 am,34,ghulam.kazim,39.38.34.152,Update General Journal Entry - JV100
October 3 2018, 1:00 pm,,ghulam.kazim,39.38.34.152,User Login
October 3 2018, 1:08 pm,34,ghulam.kazim,39.38.34.152,Add New General Journal Entry - BPV365
October 3 2018, 1:11 pm,34,ghulam.kazim,39.38.34.152,Add New General Journal Entry - BPV366
October 3 2018, 5:17 pm,,ghulam.kazim,39.38.60.235,User Login
October 4 2018, 11:23 am,,ghulam.kazim,39.38.57.254,User Login
October 4 2018, 12:40 pm,,ghulam.kazim,39.38.57.254,User Login
October 4 2018, 2:28 pm,,ghulam.kazim,39.38.17.19,User Login
October 4 2018, 3:06 pm,34,ghulam.kazim,39.38.17.19,Add New General Journal Entry - BPV255
October 5 2018, 9:44 am,,ghulam.kazim,39.38.4.73,User Login
October 5 2018, 9:48 am,,ghulam.kazim,39.38.4.73,User Login
October 5 2018, 10:08 am,34,ghulam.kazim,39.38.4.73,Add New General Journal Entry - JV101
October 5 2018, 10:35 am,34,ghulam.kazim,39.38.4.73,Update General Journal Entry - BPV57
October 5 2018, 11:19 am,34,ghulam.kazim,39.38.4.73,Add New General Journal Entry - BPV60
October 5 2018, 11:27 am,34,ghulam.kazim,39.38.4.73,Add New General Journal Entry - BPV61
October 5 2018, 11:40 am,34,ghulam.kazim,39.38.4.73,Update General Journal Entry - BPV345
October 5 2018, 11:41 am,34,ghulam.kazim,39.38.4.73,Add New General Journal Entry - BPV256
October 5 2018, 11:48 am,34,ghulam.kazim,39.38.4.73,Add New General Journal Entry - BPV62
October 5 2018, 11:51 am,34,ghulam.kazim,39.38.4.73,Add New General Journal Entry - BPV63
October 5 2018, 12:01 pm,34,ghulam.kazim,39.38.4.73,Add New General Journal Entry - BPV159
October 5 2018, 12:06 pm,34,ghulam.kazim,39.38.4.73,Update General Journal Entry - BPV159
October 5 2018, 2:06 pm,,ghulam.kazim,39.38.4.73,User Login
October 5 2018, 2:54 pm,,ghulam.kazim,39.38.4.73,User Login
October 5 2018, 4:04 pm,,ghulam.kazim,39.38.45.5,User Login
October 5 2018, 4:24 pm,34,ghulam.kazim,39.38.45.5,Add New General Journal Entry - BPV64
October 5 2018, 5:20 pm,,ghulam.kazim,39.38.45.5,User Login
October 6 2018, 10:55 am,,ghulam.kazim,103.228.157.101,User Login
October 6 2018, 11:15 am,34,ghulam.kazim,103.228.157.101,Update General Journal Entry - JV91
October 6 2018, 11:40 am,34,ghulam.kazim,39.38.10.26,Update General Journal Entry - JV98
October 8 2018, 9:47 am,,ghulam.kazim,39.38.12.121,User Login
October 8 2018, 11:01 am,34,ghulam.kazim,39.38.12.121,Add New General Journal Entry - BPV65
October 8 2018, 12:09 pm,,ghulam.kazim,39.38.12.121,User Login
October 8 2018, 12:19 pm,,admin,39.38.12.121,User Login
October 8 2018, 12:21 pm,34,ghulam.kazim,39.38.12.121,Add New General Journal Entry - BPV66
October 8 2018, 3:53 pm,,ghulam.kazim,39.38.48.52,User Login
October 8 2018, 5:56 pm,,ghulam.kazim,39.38.3.67,User Login
October 8 2018, 6:00 pm,,ghulam.kazim,39.38.3.67,User Login
October 8 2018, 6:03 pm,34,ghulam.kazim,39.38.3.67,Add New General Journal Entry - BPV66
October 8 2018, 6:04 pm,34,ghulam.kazim,39.38.3.67,Add New General Journal Entry - BPV257
October 8 2018, 6:11 pm,34,ghulam.kazim,39.38.3.67,Add New General Journal Entry - BPV67
October 8 2018, 6:15 pm,34,ghulam.kazim,39.38.3.67,Add New General Journal Entry - BPV68
October 8 2018, 6:19 pm,34,ghulam.kazim,39.38.3.67,Add New General Journal Entry - BPV69
October 8 2018, 6:22 pm,34,ghulam.kazim,39.38.3.67,Add New General Journal Entry - BPV70
October 8 2018, 6:24 pm,34,ghulam.kazim,39.38.3.67,Add New General Journal Entry - BPV71
October 8 2018, 7:00 pm,34,ghulam.kazim,39.38.3.67,Update General Journal Entry - BPV68
October 8 2018, 7:33 pm,34,ghulam.kazim,39.38.3.67,Add New General Journal Entry - BPV72
October 8 2018, 7:36 pm,34,ghulam.kazim,39.38.3.67,Add New General Journal Entry - BPV73
October 8 2018, 7:40 pm,34,ghulam.kazim,39.38.3.67,Add New General Journal Entry - BRV11
October 9 2018, 11:29 am,,ghulam.kazim,39.38.18.159,User Login
October 9 2018, 11:35 am,,ghulam.kazim,39.38.18.159,User Login
October 9 2018, 11:42 am,34,ghulam.kazim,39.38.18.159,Add New General Journal Entry - BPV74
October 9 2018, 11:45 am,34,ghulam.kazim,39.38.18.159,Add New General Journal Entry - BPV75
October 9 2018, 11:53 am,34,ghulam.kazim,39.38.18.159,Add New General Journal Entry - BPV76
October 9 2018, 11:58 am,34,ghulam.kazim,39.38.18.159,Add New General Journal Entry - BPV77
October 9 2018, 3:30 pm,,ghulam.kazim,39.38.46.111,User Login
October 9 2018, 3:56 pm,,admin,39.38.55.185,User Login
October 9 2018, 4:21 pm,,ghulam.kazim,39.38.55.185,User Login
October 9 2018, 4:50 pm,,ghulam.kazim,39.38.55.185,User Login
October 9 2018, 5:16 pm,,admin,39.38.55.185,User Login
October 9 2018, 5:23 pm,,ghulam.kazim,39.38.55.185,User Login
October 9 2018, 5:38 pm,,admin,39.38.55.185,User Logout
October 10 2018, 9:04 am,,ghulam.kazim,39.38.15.227,User Login
October 10 2018, 9:09 am,34,ghulam.kazim,39.38.15.227,Update General Journal Entry - JV14
October 10 2018, 9:23 am,34,ghulam.kazim,39.38.19.55,Update General Journal Entry - BPV38
October 10 2018, 9:25 am,34,ghulam.kazim,39.38.19.55,Update General Journal Entry - BPV39
October 10 2018, 9:27 am,34,ghulam.kazim,39.38.19.55,Update General Journal Entry - JV20
October 10 2018, 9:32 am,34,ghulam.kazim,39.38.19.55,Update General Journal Entry - BPV40
October 10 2018, 9:34 am,34,ghulam.kazim,39.38.19.55,Update General Journal Entry - JV17
October 10 2018, 9:39 am,34,ghulam.kazim,39.38.19.55,Update General Journal Entry - JV18
October 10 2018, 10:50 am,,ghulam.kazim,39.38.19.55,User Login
October 10 2018, 11:32 am,34,ghulam.kazim,39.38.19.55,Add New General Journal Entry - BRV12
October 10 2018, 11:57 am,34,ghulam.kazim,39.38.19.55,Update General Journal Entry - JV14
October 10 2018, 11:59 am,34,ghulam.kazim,39.38.19.55,Add New General Journal Entry - JV22
October 10 2018, 12:07 pm,34,ghulam.kazim,39.38.19.55,Add New General Journal Entry - JV23
October 10 2018, 12:10 pm,34,ghulam.kazim,39.38.19.55,Add New General Journal Entry - JV24
October 10 2018, 12:17 pm,34,ghulam.kazim,39.38.19.55,Add New General Journal Entry - JV25
October 10 2018, 2:11 pm,,ghulam.kazim,39.38.40.200,User Login
October 10 2018, 2:25 pm,34,ghulam.kazim,39.38.41.116,Add New General Journal Entry - JV46
October 10 2018, 2:37 pm,34,ghulam.kazim,39.38.41.116,Add New General Journal Entry - JV47
October 10 2018, 2:48 pm,34,ghulam.kazim,39.38.41.116,Add New General Journal Entry - JV48
October 10 2018, 3:21 pm,34,ghulam.kazim,39.38.41.116,Add New General Journal Entry - JV102
October 10 2018, 4:15 pm,,ghulam.kazim,39.38.41.116,User Login
October 10 2018, 4:44 pm,34,ghulam.kazim,39.38.41.116,Add New General Journal Entry - JV103
October 10 2018, 4:51 pm,34,ghulam.kazim,39.38.41.116,Add New General Journal Entry - JV104
October 10 2018, 4:56 pm,34,ghulam.kazim,39.38.41.116,Add New General Journal Entry - JV105
October 10 2018, 5:27 pm,34,ghulam.kazim,39.38.41.116,Add New General Journal Entry - JV106
October 11 2018, 10:16 am,34,ghulam.kazim,39.38.28.68,Add New General Journal Entry - JV107
October 11 2018, 10:39 am,34,ghulam.kazim,39.38.28.68,Update General Journal Entry - JV105
October 11 2018, 10:44 am,34,ghulam.kazim,39.38.28.68,Add New General Journal Entry - JV108
October 11 2018, 10:45 am,34,ghulam.kazim,39.38.28.68,Update General Journal Entry - JV108
October 11 2018, 10:47 am,34,ghulam.kazim,39.38.28.68,Add New General Journal Entry - JV109
October 11 2018, 11:01 am,34,ghulam.kazim,39.38.28.68,Add New General Journal Entry - JV110
October 11 2018, 11:05 am,34,ghulam.kazim,39.38.28.68,Add New General Journal Entry - JV111
October 11 2018, 2:14 pm,,ghulam.kazim,39.38.42.121,User Login
October 11 2018, 2:56 pm,34,ghulam.kazim,39.38.42.121,Add New General Journal Entry - JV112
October 11 2018, 3:02 pm,34,ghulam.kazim,39.38.42.121,Update General Journal Entry - JV111
October 11 2018, 3:59 pm,,ghulam.kazim,39.38.42.121,User Login
October 12 2018, 10:20 am,,admin,39.38.7.251,User Login
October 12 2018, 10:31 am,,ghulam.kazim,39.38.7.251,User Login
October 12 2018, 10:45 am,,ghulam.kazim,39.38.7.251,User Login
October 12 2018, 10:51 am,34,ghulam.kazim,39.38.7.251,Add New Bank Check Book - 00000L
October 12 2018, 11:15 am,34,ghulam.kazim,39.38.7.251,Add New General Journal Entry - BPV367
October 12 2018, 11:20 am,34,ghulam.kazim,39.38.7.251,Add New General Journal Entry - BPV368
October 12 2018, 11:24 am,34,ghulam.kazim,39.38.7.251,Add New General Journal Entry - BPV258
October 12 2018, 11:27 am,34,ghulam.kazim,39.38.7.251,Add New General Journal Entry - BPV259
October 12 2018, 11:29 am,34,ghulam.kazim,39.38.7.251,Add New General Journal Entry - BPV369
October 12 2018, 11:34 am,34,ghulam.kazim,39.38.7.251,Add New General Journal Entry - BPV370
October 12 2018, 11:37 am,34,ghulam.kazim,39.38.7.251,Add New General Journal Entry - BPV371
October 12 2018, 11:55 am,34,ghulam.kazim,39.38.7.251,Add New General Journal Entry - BPV372
October 12 2018, 12:00 pm,34,ghulam.kazim,39.38.7.251,Add New General Journal Entry - BPV373
October 12 2018, 12:25 pm,34,ghulam.kazim,39.38.7.251,Add New General Journal Entry - BPV374
October 12 2018, 12:28 pm,34,ghulam.kazim,39.38.7.251,Add New General Journal Entry - BPV375
October 12 2018, 1:17 pm,34,ghulam.kazim,39.38.7.251,Add New General Journal Entry - JV26
October 12 2018, 1:24 pm,34,ghulam.kazim,39.38.7.251,Add New General Journal Entry - BPV78
October 12 2018, 1:32 pm,34,ghulam.kazim,39.38.7.251,Update General Journal Entry - JV26
October 12 2018, 2:18 pm,,ghulam.kazim,39.38.7.251,User Login
October 12 2018, 2:22 pm,34,ghulam.kazim,39.38.7.251,Update General Journal Entry - JV46
October 12 2018, 2:29 pm,34,ghulam.kazim,39.38.7.251,Update General Journal Entry - JV46
October 12 2018, 2:39 pm,34,ghulam.kazim,39.38.7.251,Update General Journal Entry - JV47
October 12 2018, 2:49 pm,34,ghulam.kazim,39.38.7.251,Add New General Journal Entry - JV49
October 12 2018, 3:15 pm,34,ghulam.kazim,39.38.50.224,Add New General Journal Entry - JV27
October 12 2018, 3:26 pm,34,ghulam.kazim,39.38.50.224,Add New General Journal Entry - JV28
October 12 2018, 3:29 pm,34,ghulam.kazim,39.38.50.224,Add New General Journal Entry - JV29
October 12 2018, 3:35 pm,34,ghulam.kazim,39.38.50.224,Add New General Journal Entry - JV30
October 12 2018, 3:38 pm,34,ghulam.kazim,39.38.50.224,Add New General Journal Entry - JV31
October 12 2018, 3:50 pm,34,ghulam.kazim,39.38.55.233,Add New General Journal Entry - JV32
October 12 2018, 3:55 pm,34,ghulam.kazim,39.38.55.233,Add New General Journal Entry - JV33
October 12 2018, 4:52 pm,,ghulam.kazim,39.38.55.233,User Login
October 12 2018, 4:55 pm,,ghulam.kazim,39.38.55.233,User Login
October 14 2018, 10:30 pm,,ghulam.kazim,39.38.4.171,User Login
October 14 2018, 10:31 pm,34,ghulam.kazim,39.38.4.171,Update General Journal Entry - JV46
October 14 2018, 10:33 pm,34,ghulam.kazim,39.38.4.171,Update General Journal Entry - JV47
October 15 2018, 10:21 am,,ghulam.kazim,39.38.13.103,User Login
October 15 2018, 11:58 am,,ghulam.kazim,39.38.13.103,User Login
October 15 2018, 12:12 pm,34,ghulam.kazim,39.38.13.103,Update General Journal Entry - BPV332
October 15 2018, 2:41 pm,,ghulam.kazim,39.38.39.176,User Login
October 15 2018, 3:12 pm,34,ghulam.kazim,39.38.39.176,Update General Journal Entry - BPV341
October 15 2018, 4:03 pm,34,ghulam.kazim,39.38.52.217,Update General Journal Entry - BPV335
October 15 2018, 4:47 pm,,ghulam.kazim,39.38.52.217,User Login
October 15 2018, 5:02 pm,34,ghulam.kazim,39.38.52.217,Update General Journal Entry - BRV33
October 16 2018, 9:49 am,,admin,39.38.14.159,User Login
October 16 2018, 9:50 am,1,admin,39.38.14.159,Update Employee - madiha.burriro
October 16 2018, 9:52 am,1,admin,39.38.14.159,Update Employee - qurban.ali
October 16 2018, 11:02 am,,ghulam.kazim,39.38.21.46,User Login
October 16 2018, 12:00 pm,34,ghulam.kazim,39.38.21.46,Add New General Journal Entry - BPV260
October 16 2018, 12:27 pm,34,ghulam.kazim,39.38.21.46,Update General Journal Entry - BPV260
October 16 2018, 12:57 pm,34,ghulam.kazim,39.38.28.15,Update General Journal Entry - BPV260
October 16 2018, 1:15 pm,34,ghulam.kazim,39.38.28.15,Add New General Journal Entry - BPV261
October 16 2018, 1:37 pm,,ghulam.kazim,39.38.31.76,User Login
October 16 2018, 2:17 pm,34,ghulam.kazim,39.38.31.76,Add New General Journal Entry - JV50
October 16 2018, 2:20 pm,34,ghulam.kazim,39.38.31.76,Update General Journal Entry - JV50
October 16 2018, 2:35 pm,34,ghulam.kazim,39.38.31.76,Add New General Journal Entry - BPV262
October 16 2018, 4:09 pm,,ghulam.kazim,39.38.31.76,User Login
October 16 2018, 4:11 pm,34,ghulam.kazim,39.38.31.76,Add New General Journal Entry - BPV376
October 16 2018, 4:30 pm,34,ghulam.kazim,39.38.31.76,Add New General Journal Entry - BRV13
October 16 2018, 4:32 pm,34,ghulam.kazim,39.38.31.76,Add New General Journal Entry - BRV14
October 16 2018, 4:42 pm,34,ghulam.kazim,39.38.31.76,Add New General Journal Entry - BPV377
October 16 2018, 8:37 pm,,ghulam.kazim,39.38.60.108,User Login
October 17 2018, 10:17 am,,ghulam.kazim,39.38.12.103,User Login
October 17 2018, 5:23 pm,,ghulam.kazim,39.38.39.78,User Login
October 18 2018, 9:29 am,,ghulam.kazim,39.38.8.10,User Login
October 18 2018, 9:37 am,34,ghulam.kazim,39.38.8.10,Add New General Journal Entry - BPV67
October 18 2018, 10:52 am,,ghulam.kazim,39.38.12.5,User Login
October 18 2018, 11:26 am,34,ghulam.kazim,39.38.12.5,Update General Journal Entry - JV29
October 18 2018, 11:47 am,,ghulam.kazim,39.38.12.5,User Login
October 18 2018, 12:44 pm,,ghulam.kazim,39.38.12.5,User Login
October 18 2018, 2:09 pm,,ghulam.kazim,39.38.33.116,User Login
October 18 2018, 2:19 pm,34,ghulam.kazim,39.38.33.116,Add New General Journal Entry - BPV263
October 18 2018, 2:30 pm,34,ghulam.kazim,39.38.33.116,Add New General Journal Entry - BPV79
October 18 2018, 2:37 pm,34,ghulam.kazim,39.38.33.116,Add New General Journal Entry - BPV264
October 18 2018, 3:12 pm,,admin,39.38.33.116,User Login
October 18 2018, 3:25 pm,,ghulam.kazim,39.38.42.106,User Login
October 18 2018, 3:27 pm,34,ghulam.kazim,39.38.42.106,Add New General Journal Entry - BPV80
October 18 2018, 3:37 pm,,admin,39.38.42.106,User Logout
October 18 2018, 5:12 pm,,ghulam.kazim,39.38.47.116,User Login
October 18 2018, 6:29 pm,,ghulam.kazim,39.38.47.116,User Login
October 20 2018, 11:52 am,,ghulam.kazim,39.38.3.154,User Login
October 22 2018, 10:17 am,,ghulam.kazim,39.38.40.188,User Login
October 22 2018, 10:22 am,34,ghulam.kazim,39.38.40.188,Add New General Journal Entry - BPV265
October 22 2018, 10:43 am,,ghulam.kazim,39.38.57.90,User Login
October 22 2018, 10:57 am,34,ghulam.kazim,39.38.57.90,Add New General Journal Entry - BRV35
October 22 2018, 11:00 am,34,ghulam.kazim,39.38.57.90,Add New General Journal Entry - BPV378
October 22 2018, 11:39 am,,ghulam.kazim,39.38.57.90,User Login
October 22 2018, 12:20 pm,,admin,39.38.57.90,User Login
October 22 2018, 12:55 pm,,ghulam.kazim,39.38.4.195,User Login
October 22 2018, 1:00 pm,34,ghulam.kazim,39.38.4.195,Update General Journal Entry - BRV35
October 22 2018, 1:02 pm,34,ghulam.kazim,39.38.4.195,Add New General Journal Entry - JV34
October 22 2018, 1:03 pm,34,ghulam.kazim,39.38.4.195,Update General Journal Entry - JV34
October 22 2018, 1:08 pm,34,ghulam.kazim,39.38.4.195,Add New General Journal Entry - JV113
October 22 2018, 5:14 pm,,ghulam.kazim,39.38.13.47,User Login
October 22 2018, 5:22 pm,,admin,39.38.13.47,User Login
October 24 2018, 10:52 am,,ghulam.kazim,137.59.145.16,User Login
October 24 2018, 11:14 am,,ghulam.kazim,39.38.20.253,User Login
October 26 2018, 11:35 am,,ghulam.kazim,39.38.38.147,User Login
October 26 2018, 1:00 pm,,ghulam.kazim,39.38.47.181,User Login
October 26 2018, 1:25 pm,34,ghulam.kazim,39.38.47.181,Add New General Journal Entry - BPV266
October 26 2018, 1:26 pm,34,ghulam.kazim,39.38.47.181,Update General Journal Entry - BPV266
October 26 2018, 2:16 pm,,ghulam.kazim,39.38.47.181,User Login
October 26 2018, 2:17 pm,34,ghulam.kazim,39.38.47.181,Add New General Journal Entry - BRV22
October 26 2018, 2:22 pm,34,ghulam.kazim,39.38.47.181,Update General Journal Entry - BPV265
October 26 2018, 2:29 pm,34,ghulam.kazim,39.38.47.181,Update General Journal Entry - BRV22
October 26 2018, 2:31 pm,34,ghulam.kazim,39.38.47.181,Add New General Journal Entry - BRV23
October 26 2018, 2:56 pm,,ghulam.kazim,39.38.5.17,User Login
October 26 2018, 2:58 pm,34,ghulam.kazim,39.38.5.17,Update General Journal Entry - BRV35
October 26 2018, 3:04 pm,34,ghulam.kazim,39.38.5.17,Add New General Journal Entry - JV114
October 26 2018, 3:13 pm,34,ghulam.kazim,39.38.5.17,Add New General Journal Entry - BPV81
October 26 2018, 3:19 pm,34,ghulam.kazim,39.38.5.17,Add New General Journal Entry - BPV82
October 26 2018, 3:51 pm,,admin,39.38.5.17,User Login
October 26 2018, 4:23 pm,,ghulam.kazim,39.38.5.17,User Login
October 26 2018, 4:23 pm,,admin,39.38.5.17,User Logout
October 27 2018, 11:20 am,,ghulam.kazim,39.38.38.59,User Login
October 27 2018, 11:24 am,34,ghulam.kazim,39.38.38.59,Add New General Journal Entry - BPV267
October 27 2018, 11:41 am,,ghulam.kazim,39.38.42.236,User Login
October 27 2018, 11:44 am,34,ghulam.kazim,39.38.42.236,Add New General Journal Entry - BPV268
October 31 2018, 11:08 am,,ghulam.kazim,39.38.4.189,User Login
October 31 2018, 11:35 am,34,ghulam.kazim,39.38.4.189,Add New General Journal Entry - BRV36
October 31 2018, 1:30 pm,,ghulam.kazim,39.38.4.189,User Login
